0-LSodar_1.png=1317221b1234f688e6595e11a3792d1b
1-CVode_1.png=ad184563bd94c9741b096243507b9520
2-Runge-Kutta_1.png=4b7e473123201abb90791c2fc8b00d0f
3-Dormand-Prince_1.png=f03f6156c4442805827ba389af1f314e
4-ImplicitRK_1.png=3baa7637cb0be94076c6e06b7ae34991
4-RKImplicite_1.png=3baa7637cb0be94076c6e06b7ae34991
5-CrankNicolson_1.png=e460c3c5dcdf57152d190386d91eac1d
6-IDA_en_US_1.png=56248160f1b98de82bccc2bbd1850f5
6-IDA_fr_FR_1.png=c0c4c44ea933b98ca3a7111ff32c5066
6-IDA_ja_JP_1.png=56248160f1b98de82bccc2bbd1850f5
6-IDA_pt_BR_1.png=56248160f1b98de82bccc2bbd1850f5
6-IDA_ru_RU_1.png=56248160f1b98de82bccc2bbd1850f5
7-DDaskr_en_US_1.png=f902022bda23b79ce574a425967e0b88
7-DDaskr_fr_FR_1.png=e7b1c5084ec12016ceaeddc61facfc5f
7-DDaskr_ja_JP_1.png=f902022bda23b79ce574a425967e0b88
7-DDaskr_pt_BR_1.png=f902022bda23b79ce574a425967e0b88
7-DDaskr_ru_RU_1.png=f902022bda23b79ce574a425967e0b88
8-Racines_1.png=e1f0073e6015be65dc8c2419c8e463ea
8-Rootfinding_1.png=e1f0073e6015be65dc8c2419c8e463ea
9-Comparaisons_1.png=1317221b1234f688e6595e11a3792d1b
9-Comparaisons_2.png=af6502f90edbd9b38543af88fe5f38f3
9-Comparaisons_3.png=f0a5c1ac73fbad1886c26a1175dded0f
9-Comparaisons_4.png=88f684efd9b8fd70dac03a02a05313c7
9-Comparaisons_5.png=74f85e2dc70a3f4c64d83a34c0f4e996
9-Comparisons_1.png=1317221b1234f688e6595e11a3792d1b
9-Comparisons_2.png=af6502f90edbd9b38543af88fe5f38f3
9-Comparisons_3.png=f0a5c1ac73fbad1886c26a1175dded0f
9-Comparisons_4.png=88f684efd9b8fd70dac03a02a05313c7
9-Comparisons_5.png=74f85e2dc70a3f4c64d83a34c0f4e996
ABS_VALUE_1.png=14a5f86525c3b2d00b2211899dbff9ca
CLKINV_f_1.png=22169f7e0dbbd153cbba726152fa71b0
CLKINV_f_fr_FR_1.png=654e6e0715029ba9b26b11d8b8f89026
CLKOUTV_f_1.png=669b61ab57b262990f0ac93c38ea278e
CLKOUTV_f_fr_FR_1.png=169efcc5f561e5ebecffd0b89758090a
CLOCK_c_1.png=f16a47b46407e6d4662a5d0b3a90ed25
CLSS_1.png=6e6fe1f3eb8bb00d2550d56b6db20aa1
CSCOPE_1.png=2d909fe2bcc644ed0330ec8bbb0318d2
Counter_1.png=a88328a6ccb0eccd4ed8bf4a5bbb82ee
DEADBAND_1.png=20a32eccd368a2c1db61d29c84129eff
DEADBAND_fr_FR_1.png=1d45f2e6ad98c824be4205cb4f5ea1e1
DELAYV_f_1.png=f0c432cadcd045273269e52b87199ec7
DELAY_f_1.png=6965e321be950bc9529fc67c3177d0a7
DELAY_f_2.png=b10b9eb56f4f302b40722fc37f90152
DELAY_f_fr_FR_1.png=c3059f389f1c116fb8149b96baa3817
DERIV_1.png=c9f8cd048fb9c2d0f875e7cc783767cb
DLATCH_1.png=7ec2ce7f1b895e38e22af86c75810c7b
DLATCH_fr_FR_1.png=1fb9aa73f5b67deb46db79159a36bc1
DOLLAR_f_1.png=b10b9eb56f4f302b40722fc37f90152
EXPRESSION_1.png=f63c889d3d4602b03a883497318fda61
GENSIN_f_1.png=e4e9107e33977bc2ec15c56eda72b817
GENSQR_f_1.png=5d1882efbb97cbba3134b38ece4a3669
Graphics_1.png=27c8486b418fbb7c6824eed71d033448
Graphics_10.png=85bdf268d4455ec7852e0b60d76126b2
Graphics_11.png=cf9d9d7863400326039f6da3b814cec7
Graphics_12.png=f3fb91c58fe1342f76461c2bd4f43af3
Graphics_13.png=2a3b1dcd31d5cb054964f147c6676168
Graphics_14.png=83ad54aee8bee439a11c19199df4d57
Graphics_15.png=22e946ae43362626173962583ba2c75
Graphics_16.png=6735304861cac3a527410d9fca7acdbf
Graphics_17.png=4db104cec73db5309f073b24c2d740e1
Graphics_18.png=48a5ce7ae83e9764fa8285fb1b25b4f9
Graphics_19.png=f2eddb04d3bcde0e1b98decc8a32c3d1
Graphics_2.png=ca7d6e343da4cb84c5550b19b5111a5e
Graphics_20.png=fb426fe907194095989682f8c1c4b477
Graphics_21.png=3039a9134c31453b49ff23776a4e6abf
Graphics_22.png=e95387c52bc0f1f2bfc674b62c9bb537
Graphics_23.png=1769acb58167f96070f6c71dcd54cbf2
Graphics_24.png=9031d249fda1aeea0a14f05417e56bd7
Graphics_25.png=90067203ae72d8ba7f61061a17f7d016
Graphics_26.png=2e80dc6ec334a5caf5b2c918e68bad3
Graphics_27.png=4bc6636c30fd29609f4bd77bfeaea661
Graphics_28.png=f81c4cf83b99442956c35722e86ec478
Graphics_29.png=7fe04f65bcbeb65eef5f90b3759be02e
Graphics_3.png=9d4c072a9f27f8f0e07f7d098ee533ec
Graphics_30.png=87ec396c51a7cc6aafb148e1aa5f9256
Graphics_31.png=67f6ae9c0d36df93eb50e514746aac13
Graphics_32.png=26826b399f567100ed0118a54c896b5a
Graphics_33.png=d23142ccde9162c1dd911048a34bad42
Graphics_34.png=d23142ccde9162c1dd911048a34bad42
Graphics_35.png=d23142ccde9162c1dd911048a34bad42
Graphics_4.png=ca17ee46fae89a343407d090111051b5
Graphics_5.png=6e915789427344f2111be90b463014b3
Graphics_6.png=e830cf073e36fb2c95cf85a9eee02c52
Graphics_7.png=bbb197885458782741ad914e27c8ecf7
Graphics_8.png=82170d2a412a217cfb313017bbec8f7f
Graphics_9.png=a5dddbe55ffd41e86ea4664a5d58cb4a
Graphics_en_US_33.png=caffc3a1e808e6c77f4b3507ccf2244d
Graphics_en_US_34.png=2297699ec06e47b2fe0a18a86fd34c29
Graphics_en_US_35.png=6ffc4cdec09ab46a1e5d4ae9fc119fc9
Graphics_en_US_36.png=415eb9aa50045f403f03bf90418a60da
Graphics_en_US_37.png=76950c3a78d543018ca046b7e5709d88
Graphics_en_US_38.png=949d08ca0d73f015692fe34327e6f479
Graphics_en_US_39.png=472c77f8a7f56a9ecded78b1cb041139
Graphics_en_US_40.png=472c77f8a7f56a9ecded78b1cb041139
Graphics_en_US_41.png=472c77f8a7f56a9ecded78b1cb041139
Graphics_fr_FR_33.png=caffc3a1e808e6c77f4b3507ccf2244d
Graphics_fr_FR_34.png=2297699ec06e47b2fe0a18a86fd34c29
Graphics_fr_FR_35.png=6ffc4cdec09ab46a1e5d4ae9fc119fc9
Graphics_fr_FR_36.png=415eb9aa50045f403f03bf90418a60da
Graphics_fr_FR_37.png=76950c3a78d543018ca046b7e5709d88
Graphics_fr_FR_38.png=949d08ca0d73f015692fe34327e6f479
Graphics_fr_FR_39.png=472c77f8a7f56a9ecded78b1cb041139
Graphics_fr_FR_40.png=472c77f8a7f56a9ecded78b1cb041139
Graphics_fr_FR_41.png=472c77f8a7f56a9ecded78b1cb041139
Graphics_ja_JP_33.png=caffc3a1e808e6c77f4b3507ccf2244d
Graphics_ja_JP_34.png=2297699ec06e47b2fe0a18a86fd34c29
Graphics_ja_JP_35.png=6ffc4cdec09ab46a1e5d4ae9fc119fc9
Graphics_ja_JP_36.png=415eb9aa50045f403f03bf90418a60da
Graphics_ja_JP_37.png=76950c3a78d543018ca046b7e5709d88
Graphics_ja_JP_38.png=949d08ca0d73f015692fe34327e6f479
Graphics_ja_JP_39.png=472c77f8a7f56a9ecded78b1cb041139
Graphics_ja_JP_40.png=472c77f8a7f56a9ecded78b1cb041139
Graphics_ja_JP_41.png=472c77f8a7f56a9ecded78b1cb041139
Graphics_ru_RU_33.png=caffc3a1e808e6c77f4b3507ccf2244d
Graphics_ru_RU_34.png=2297699ec06e47b2fe0a18a86fd34c29
Graphics_ru_RU_35.png=6ffc4cdec09ab46a1e5d4ae9fc119fc9
Graphics_ru_RU_36.png=415eb9aa50045f403f03bf90418a60da
Graphics_ru_RU_37.png=76950c3a78d543018ca046b7e5709d88
Graphics_ru_RU_38.png=949d08ca0d73f015692fe34327e6f479
Graphics_ru_RU_39.png=472c77f8a7f56a9ecded78b1cb041139
Graphics_ru_RU_40.png=472c77f8a7f56a9ecded78b1cb041139
Graphics_ru_RU_41.png=472c77f8a7f56a9ecded78b1cb041139
INIMPL_f_1.png=abac7044fea3fc1a4f989661cfc42391
INIMPL_f_fr_FR_1.png=83eb32af09f9e2231acc98c36b82dce2
INTEGRAL_m_1.png=819a0959f064d7afdfb7cc858016a945
INTEGRAL_m_2.png=8ac71675d74bdfb8aa5a5b79397749d3
INTRPLBLK_f_1.png=33cb18a7088876691af4f5917a228ae0
IN_f_1.png=14ebefc5c6f0a4168285be7f53de873e
IN_f_fr_FR_1.png=faf470b9c45b11cf1a37736304175116
JKFLIPFLOP_content_1.png=41633bba65cdd898d6d40657e606618f
JKFLIPFLOP_fr_FR_1.png=12520fcc860ddc21378285d090a81964
LOGIC_1.png=fedbff23681192420b1d1b2780d716a3
LOGIC_fr_FR_1.png=61b39bb2fa0f137d7cdc7f857f1e1de9
LineSpec_1.png=3865808691b21c492ceb231a78009863
LineSpec_2.png=a06fa74995bbeb13d6486a51c45e05a3
LineSpec_3.png=944c239bd89a7e1f5d21705c19c1fba
LineSpec_4.png=57732b0000bb78016145a6d579836134
Matplot1_1.png=d6a47166ab86e17add7e33932c1c75e0
Matplot_1.png=d64708ebf99438b7fc27b1c4e1926050
Matplot_2.png=b7b8694b84bef82f90933032af005ad9
Matplot_properties_1.png=654ebd6a5dc506095114aea8aa6d61d2
Modulo_Count_1.png=fe92d3f9f46d41fdef932dbbe062073a
OUTIMPL_f_1.png=aa84fd3d40f5524d09bcc978095e7aba
OUTIMPL_f_fr_FR_1.png=a9c23980b1da854f0922e05ff00147ba
OUT_f_1.png=b8152428f0292e0ebee5182e015dd47b
OUT_f_fr_FR_1.png=a59977ac1c9919b12b6d10f9b178aa12
PID_1.png=8843194ddcc121e2029098a2cd9fd64b
PID_2.png=ca84f21c8c54b33b1813441eec8f9f8f
PID_3.png=388ad02b0483aeda88a8b41dcf37ef5c
PlotSparse_1.png=b58f1a44cd131e85df279e2e3b3b7667
QUANT_f_1.png=c2543a4ecacb4e8006e27b39de01d730
QUANT_f_2.png=d014d30ed3d0745cc91b3cda699dbb14
RAMP_1.png=c23fa5d3551bbd0d62ed522a383f858b
REGISTER_1.png=b10b9eb56f4f302b40722fc37f90152
SAWTOOTH_f_1.png=10ee1db52ca7bf5c9a88f6af721493a6
SRFLIPFLOP_1.png=bf5bf1af128d883fe210b34b77108187
SRFLIPFLOP_fr_FR_1.png=66fae8781f8aff2688d19345715c229d
STEP_FUNCTION_1.png=a0f3c8ffdd4693291dc1c322c9a02fc5
STEP_FUNCTION_2.png=18359b7fac7dc5a8a2b2620d946b799d
Sfgrayplot_1.png=f3fb91c58fe1342f76461c2bd4f43af3
Sfgrayplot_2.png=b5139a9e5e0fd480bbafa10a88be5787
Sfgrayplot_3.png=62dfa0f80a4796b2bb3f49b0c869c5cf
Sfgrayplot_4.png=5ed6f3ce5c25c81f046e7359d9bc6e7d
Sfgrayplot_en_US_4.png=5ed6f3ce5c25c81f046e7359d9bc6e7d
Sfgrayplot_fr_FR_4.png=5ed6f3ce5c25c81f046e7359d9bc6e7d
Sfgrayplot_ja_JP_4.png=5ed6f3ce5c25c81f046e7359d9bc6e7d
Sfgrayplot_pt_BR_3.png=bfff08659962454c62bebdd29f5abc76
Sfgrayplot_pt_BR_4.png=c985dda5076316ab30dfb721aa632eb8
Sfgrayplot_ru_RU_3.png=379972a821d7aa2a6cd9e7c0cd0c30aa
Sfgrayplot_ru_RU_4.png=379972a821d7aa2a6cd9e7c0cd0c30aa
Sgrayplot_1.png=a030fe22e004d0b65f1c81ba29dbab54
Sgrayplot_2.png=e692f0b328fbc704e6d55565f5ba9b2d
Sgrayplot_3.png=47a5069d75ec6f83ed08c8c2a601675b
VARIABLE_DELAY_1.png=dbe9f368a724f06454aa03acb698e295
VARIABLE_DELAY_fr_FR_1.png=80162a521eb442cba349151f8412c297
_LaTeX_0-LSodar.xml_1.png=e130ce3936e3d90b95bf43660f09cb4e
_LaTeX_1-CVode.xml_1.png=e130ce3936e3d90b95bf43660f09cb4e
_LaTeX_1-CVode.xml_2.png=d7c48296c566102dc6b62253742d996d
_LaTeX_1-CVode.xml_4.png=362c2ce027c22d000e8ef084622a4165
_LaTeX_1-CVode.xml_en_US_3.png=c9502df63ce6b84e07e71808dc6dced2
_LaTeX_1-CVode.xml_en_US_5.png=2d123d57f2dfe1889d8f37f7419567f
_LaTeX_1-CVode.xml_en_US_6.png=b981082f958261a42a09d7e945f16cd6
_LaTeX_1-CVode.xml_fr_FR_3.png=70188e08de719741f5c327b65e37f2cf
_LaTeX_1-CVode.xml_fr_FR_5.png=b34ed6ee0bae956bf423fda401d6b2be
_LaTeX_1-CVode.xml_fr_FR_6.png=cda49c7a120976affcb759ce9ee41789
_LaTeX_1-CVode.xml_ja_JP_3.png=c9502df63ce6b84e07e71808dc6dced2
_LaTeX_1-CVode.xml_ja_JP_5.png=2d123d57f2dfe1889d8f37f7419567f
_LaTeX_1-CVode.xml_ja_JP_6.png=b981082f958261a42a09d7e945f16cd6
_LaTeX_1-CVode.xml_pt_BR_3.png=c9502df63ce6b84e07e71808dc6dced2
_LaTeX_1-CVode.xml_pt_BR_5.png=2d123d57f2dfe1889d8f37f7419567f
_LaTeX_1-CVode.xml_pt_BR_6.png=b981082f958261a42a09d7e945f16cd6
_LaTeX_1-CVode.xml_ru_RU_3.png=c9502df63ce6b84e07e71808dc6dced2
_LaTeX_1-CVode.xml_ru_RU_5.png=2d123d57f2dfe1889d8f37f7419567f
_LaTeX_1-CVode.xml_ru_RU_6.png=b981082f958261a42a09d7e945f16cd6
_LaTeX_2-Runge-Kutta.xml_1.png=e130ce3936e3d90b95bf43660f09cb4e
_LaTeX_3-Dormand-Prince.xml_1.png=e130ce3936e3d90b95bf43660f09cb4e
_LaTeX_4-ImplicitRK.xml_1.png=e130ce3936e3d90b95bf43660f09cb4e
_LaTeX_4-RKImplicite.xml_1.png=e130ce3936e3d90b95bf43660f09cb4e
_LaTeX_5-CrankNicolson.xml_1.png=e130ce3936e3d90b95bf43660f09cb4e
_LaTeX_6-IDA.xml_1.png=dff7132b713410ac0eb11a45b1d627dc
_LaTeX_6-IDA.xml_2.png=1aa0a943d7130da822dd44a06bd29841
_LaTeX_6-IDA.xml_3.png=dc4144bc7f206b73cb21d076e514318
_LaTeX_6-IDA.xml_4.png=fd4d98e3f51e0df40b7279037376fcfa
_LaTeX_6-IDA.xml_5.png=45cccc2e93d5e06aac213e08e7ce740f
_LaTeX_7-DDaskr.xml_1.png=dff7132b713410ac0eb11a45b1d627dc
_LaTeX_7-DDaskr.xml_2.png=1aa0a943d7130da822dd44a06bd29841
_LaTeX_7-DDaskr.xml_3.png=dc4144bc7f206b73cb21d076e514318
_LaTeX_7-DDaskr.xml_4.png=fd4d98e3f51e0df40b7279037376fcfa
_LaTeX_7-DDaskr.xml_5.png=45cccc2e93d5e06aac213e08e7ce740f
_LaTeX_AUTOMAT.xml_1.png=b00dadb00ee90db8e89a48a304c39b21
_LaTeX_AUTOMAT.xml_10.png=be926979cd0fddca24f69853a3671cf5
_LaTeX_AUTOMAT.xml_11.png=e6a4cc642eb347c2d00876299bf47cbd
_LaTeX_AUTOMAT.xml_2.png=ed35373880183d013fc1bba898b2e3ae
_LaTeX_AUTOMAT.xml_3.png=69cf58ca5b45e67bed0857e236236440
_LaTeX_AUTOMAT.xml_4.png=ed35373880183d013fc1bba898b2e3ae
_LaTeX_AUTOMAT.xml_5.png=5a5dac85bf6322e43c574824bbbaa38c
_LaTeX_AUTOMAT.xml_6.png=fe9d99984ffd4d3101639b23ee999df5
_LaTeX_AUTOMAT.xml_7.png=61063ba399317a3b1dd61c29e43aa141
_LaTeX_AUTOMAT.xml_8.png=a5291981a6797b501c614f64f669a46b
_LaTeX_AUTOMAT.xml_9.png=ed35373880183d013fc1bba898b2e3ae
_LaTeX_BITCLEAR.xml_1.png=b97ed20387467efe4809952c888e36a8
_LaTeX_BITCLEAR.xml_fr_FR_1.png=ff1bb557dff0583158de44fc29c54874
_LaTeX_BITSET.xml_1.png=2ad868695d0f0e2a7f7033f8c47190
_LaTeX_BITSET.xml_fr_FR_1.png=621e13adf345efdb45c083751a051f93
_LaTeX_CBLOCK.xml_1.png=3def24cf259215eefdd43e76525fb473
_LaTeX_CBLOCK.xml_2.png=3def24cf259215eefdd43e76525fb473
_LaTeX_CLSS.xml_1.png=8392c4dff7f5f80b1f7d1d2c89a0aa82
_LaTeX_CLSS.xml_2.png=944e22433464f50dd883ec1b8fadea37
_LaTeX_CLSS.xml_3.png=7903ebcafc1cfe1683893d926193ce4b
_LaTeX_CLSS.xml_4.png=ddfaf0bfb39cf7978750a26a0eb22cb6
_LaTeX_CLSS.xml_5.png=1aba733342de1f90dc856add5ca377ac
_LaTeX_CLSS.xml_6.png=4dee794e36bb3162f5d87469d93692c2
_LaTeX_CLSS.xml_7.png=28d86ad35e7440ebe638ed73e5bdbaae
_LaTeX_COSBLK_f.xml_1.png=77816ca8d4dcd485e422fae43cd365c6
_LaTeX_C_struct.xml_1.png=52c86a4ad6c4965b8ab1c7eaf209ac79
_LaTeX_C_struct.xml_2.png=13a9a96a786dee13df2173663f5dc314
_LaTeX_C_struct.xml_3.png=f38be9f2ade4b4e859ad132872d8db
_LaTeX_C_struct.xml_4.png=c734c26c78ca1e6b8d6d82ef3326a5a0
_LaTeX_C_struct.xml_5.png=9049e58ebe910ce762c2d8cb913c31b0
_LaTeX_C_struct.xml_6.png=7da7b61069dbeeab5098c7db2ecdb241
_LaTeX_Capacitor.xml_1.png=7e362ac68b7a1be4b076d42012db22dd
_LaTeX_DEADBAND.xml_1.png=ab52676340ed2c7e0b0a114f45f11ae3
_LaTeX_DEADBAND.xml_2.png=4325de0b0c0231bdb1c86f6b9fe08d8e
_LaTeX_DEADBAND.xml_3.png=6b4be892f0c70b1412654dba7ed3a7c0
_LaTeX_DELAY_f.xml_1.png=24f6fce55bbf2d7fdd9e525327b07847
_LaTeX_DERIV.xml_1.png=af8e5c958fcd978c52c5650e4d817e0
_LaTeX_DFLIPFLOP.xml_1.png=4c963e0829007142fc75fab4213a3cbf
_LaTeX_DFLIPFLOP.xml_10.png=574c44a7bfd9f5229484328e422c48d7
_LaTeX_DFLIPFLOP.xml_11.png=65532efbf8fbd662e6ab99f1bfb0bbf7
_LaTeX_DFLIPFLOP.xml_12.png=c4ca4238a0b923820dcc509a6f75849b
_LaTeX_DFLIPFLOP.xml_13.png=cfcd208495d565ef66e7dff9f98764da
_LaTeX_DFLIPFLOP.xml_14.png=cfcd208495d565ef66e7dff9f98764da
_LaTeX_DFLIPFLOP.xml_15.png=c4ca4238a0b923820dcc509a6f75849b
_LaTeX_DFLIPFLOP.xml_16.png=65532efbf8fbd662e6ab99f1bfb0bbf7
_LaTeX_DFLIPFLOP.xml_17.png=c4ca4238a0b923820dcc509a6f75849b
_LaTeX_DFLIPFLOP.xml_18.png=c4ca4238a0b923820dcc509a6f75849b
_LaTeX_DFLIPFLOP.xml_19.png=c4ca4238a0b923820dcc509a6f75849b
_LaTeX_DFLIPFLOP.xml_2.png=72052bfd05b14eb011033bcb40f7b254
_LaTeX_DFLIPFLOP.xml_20.png=cfcd208495d565ef66e7dff9f98764da
_LaTeX_DFLIPFLOP.xml_21.png=2129bb861061d1a052c592e2dc6b383
_LaTeX_DFLIPFLOP.xml_22.png=2129bb861061d1a052c592e2dc6b383
_LaTeX_DFLIPFLOP.xml_23.png=ec9e5c721c4fcc0e2d249a1973ff64d4
_LaTeX_DFLIPFLOP.xml_24.png=574c44a7bfd9f5229484328e422c48d7
_LaTeX_DFLIPFLOP.xml_3.png=cb8e811f6802dcdb3614df559e25183b
_LaTeX_DFLIPFLOP.xml_4.png=4aad400c526ad874538c8881c19bf2f1
_LaTeX_DFLIPFLOP.xml_5.png=621990decae739107d16ea4303773252
_LaTeX_DFLIPFLOP.xml_6.png=65532efbf8fbd662e6ab99f1bfb0bbf7
_LaTeX_DFLIPFLOP.xml_7.png=cfcd208495d565ef66e7dff9f98764da
_LaTeX_DFLIPFLOP.xml_8.png=2129bb861061d1a052c592e2dc6b383
_LaTeX_DFLIPFLOP.xml_9.png=ec9e5c721c4fcc0e2d249a1973ff64d4
_LaTeX_DLATCH.xml_1.png=1b0a58db85a5eb713cbf771754e03b2e
_LaTeX_DLATCH.xml_10.png=cfcd208495d565ef66e7dff9f98764da
_LaTeX_DLATCH.xml_11.png=cfcd208495d565ef66e7dff9f98764da
_LaTeX_DLATCH.xml_12.png=c4ca4238a0b923820dcc509a6f75849b
_LaTeX_DLATCH.xml_13.png=c4ca4238a0b923820dcc509a6f75849b
_LaTeX_DLATCH.xml_14.png=c4ca4238a0b923820dcc509a6f75849b
_LaTeX_DLATCH.xml_15.png=c4ca4238a0b923820dcc509a6f75849b
_LaTeX_DLATCH.xml_16.png=cfcd208495d565ef66e7dff9f98764da
_LaTeX_DLATCH.xml_2.png=cb8e811f6802dcdb3614df559e25183b
_LaTeX_DLATCH.xml_3.png=4aad400c526ad874538c8881c19bf2f1
_LaTeX_DLATCH.xml_4.png=621990decae739107d16ea4303773252
_LaTeX_DLATCH.xml_5.png=cfcd208495d565ef66e7dff9f98764da
_LaTeX_DLATCH.xml_6.png=2129bb861061d1a052c592e2dc6b383
_LaTeX_DLATCH.xml_7.png=ec9e5c721c4fcc0e2d249a1973ff64d4
_LaTeX_DLATCH.xml_8.png=574c44a7bfd9f5229484328e422c48d7
_LaTeX_DLATCH.xml_9.png=c4ca4238a0b923820dcc509a6f75849b
_LaTeX_DLSS.xml_1.png=53d147e7f3fe6e47ee05b88b166bd3f6
_LaTeX_DLSS.xml_2.png=61e84f854bc6258d4108d08d4c4a0852
_LaTeX_DLSS.xml_3.png=9b325b9e31e85137d1de765f43c0f8bc
_LaTeX_DLSS.xml_4.png=78ec2b7008296ce0561cf83393cb746d
_LaTeX_Diode.xml_1.png=35ef86d813c2415f365050f60e55df90
_LaTeX_END_c.xml_1.png=13097602ca0eb5da626754319bb02464
_LaTeX_EVTDLY_c.xml_1.png=8f611346748fcfa435fd909ec853aca
_LaTeX_EVTDLY_c.xml_2.png=4dbaad557f05602327668c829f0b3ef3
_LaTeX_EVTDLY_c.xml_3.png=aa817d3182426d8666a9d48dd0f4ae21
_LaTeX_EVTDLY_c.xml_4.png=865c0c0b4ab0e063e5caa3387c1a8741
_LaTeX_EXPRESSION.xml_1.png=a6e41d7103d886552b5f6125d09ee0f1
_LaTeX_EXTRACTBITS.xml_1.png=b97ed20387467efe4809952c888e36a8
_LaTeX_EXTRACTBITS.xml_fr_FR_1.png=ff1bb557dff0583158de44fc29c54874
_LaTeX_FROMWSB.xml_1.png=feeff6ccf7aa5e2628deb23b59c1c759
_LaTeX_FROMWSB.xml_2.png=89ac95276e337f7f5deb93198d6833b5
_LaTeX_FROMWSB.xml_3.png=feeff6ccf7aa5e2628deb23b59c1c759
_LaTeX_FROMWSB.xml_4.png=34e58a0bbafa0ba54a7640470bb2cb56
_LaTeX_FROMWSB.xml_5.png=12ceba0046931ee8cf25df2f71f06a57
_LaTeX_FROMWSB.xml_6.png=edd38b21f4afb3b9bd3022d6594bc04d
_LaTeX_GENSIN_f.xml_1.png=df7110d93d01f93f0b54d9aa298e9635
_LaTeX_GENSQR_f.xml_1.png=746f663ac5f83b108763d9273b5f0e21
_LaTeX_GENSQR_f.xml_2.png=aa318bdb2a27d84eca5689f9e78acaaf
_LaTeX_GENSQR_f.xml_3.png=b6e19724204b26861523de89ac4da149
_LaTeX_GENSQR_f.xml_4.png=aa318bdb2a27d84eca5689f9e78acaaf
_LaTeX_INTRP2BLK_f.xml_1.png=205995f88b807b2f5268f7ef4053f049
_LaTeX_INTRPLBLK_f.xml_1.png=82f1018ad624f54faa176b27fa4f92fd
_LaTeX_Inductor.xml_1.png=4e69417e6e0001a48e9abb40adf4be71
_LaTeX_JKFLIPFLOP.xml_1.png=268c8a111a4f0706e82e926c47212724
_LaTeX_JKFLIPFLOP.xml_10.png=c4ca4238a0b923820dcc509a6f75849b
_LaTeX_JKFLIPFLOP.xml_11.png=cfcd208495d565ef66e7dff9f98764da
_LaTeX_JKFLIPFLOP.xml_12.png=c4ca4238a0b923820dcc509a6f75849b
_LaTeX_JKFLIPFLOP.xml_13.png=c4ca4238a0b923820dcc509a6f75849b
_LaTeX_JKFLIPFLOP.xml_14.png=cfcd208495d565ef66e7dff9f98764da
_LaTeX_JKFLIPFLOP.xml_15.png=c4ca4238a0b923820dcc509a6f75849b
_LaTeX_JKFLIPFLOP.xml_16.png=cfcd208495d565ef66e7dff9f98764da
_LaTeX_JKFLIPFLOP.xml_17.png=c4ca4238a0b923820dcc509a6f75849b
_LaTeX_JKFLIPFLOP.xml_18.png=c4ca4238a0b923820dcc509a6f75849b
_LaTeX_JKFLIPFLOP.xml_19.png=574c44a7bfd9f5229484328e422c48d7
_LaTeX_JKFLIPFLOP.xml_2.png=dfaca0f8aad55df388e07eeb190a086
_LaTeX_JKFLIPFLOP.xml_20.png=ec9e5c721c4fcc0e2d249a1973ff64d4
_LaTeX_JKFLIPFLOP.xml_3.png=4aad400c526ad874538c8881c19bf2f1
_LaTeX_JKFLIPFLOP.xml_4.png=621990decae739107d16ea4303773252
_LaTeX_JKFLIPFLOP.xml_5.png=cfcd208495d565ef66e7dff9f98764da
_LaTeX_JKFLIPFLOP.xml_6.png=cfcd208495d565ef66e7dff9f98764da
_LaTeX_JKFLIPFLOP.xml_7.png=ec9e5c721c4fcc0e2d249a1973ff64d4
_LaTeX_JKFLIPFLOP.xml_8.png=574c44a7bfd9f5229484328e422c48d7
_LaTeX_JKFLIPFLOP.xml_9.png=cfcd208495d565ef66e7dff9f98764da
_LaTeX_JKFLIPFLOP_content.dbk_1.png=268c8a111a4f0706e82e926c47212724
_LaTeX_JKFLIPFLOP_content.dbk_10.png=c4ca4238a0b923820dcc509a6f75849b
_LaTeX_JKFLIPFLOP_content.dbk_11.png=cfcd208495d565ef66e7dff9f98764da
_LaTeX_JKFLIPFLOP_content.dbk_12.png=c4ca4238a0b923820dcc509a6f75849b
_LaTeX_JKFLIPFLOP_content.dbk_13.png=c4ca4238a0b923820dcc509a6f75849b
_LaTeX_JKFLIPFLOP_content.dbk_14.png=cfcd208495d565ef66e7dff9f98764da
_LaTeX_JKFLIPFLOP_content.dbk_15.png=c4ca4238a0b923820dcc509a6f75849b
_LaTeX_JKFLIPFLOP_content.dbk_16.png=cfcd208495d565ef66e7dff9f98764da
_LaTeX_JKFLIPFLOP_content.dbk_17.png=c4ca4238a0b923820dcc509a6f75849b
_LaTeX_JKFLIPFLOP_content.dbk_18.png=c4ca4238a0b923820dcc509a6f75849b
_LaTeX_JKFLIPFLOP_content.dbk_19.png=574c44a7bfd9f5229484328e422c48d7
_LaTeX_JKFLIPFLOP_content.dbk_2.png=dfaca0f8aad55df388e07eeb190a086
_LaTeX_JKFLIPFLOP_content.dbk_20.png=ec9e5c721c4fcc0e2d249a1973ff64d4
_LaTeX_JKFLIPFLOP_content.dbk_3.png=4aad400c526ad874538c8881c19bf2f1
_LaTeX_JKFLIPFLOP_content.dbk_4.png=621990decae739107d16ea4303773252
_LaTeX_JKFLIPFLOP_content.dbk_5.png=cfcd208495d565ef66e7dff9f98764da
_LaTeX_JKFLIPFLOP_content.dbk_6.png=cfcd208495d565ef66e7dff9f98764da
_LaTeX_JKFLIPFLOP_content.dbk_7.png=ec9e5c721c4fcc0e2d249a1973ff64d4
_LaTeX_JKFLIPFLOP_content.dbk_8.png=574c44a7bfd9f5229484328e422c48d7
_LaTeX_JKFLIPFLOP_content.dbk_9.png=cfcd208495d565ef66e7dff9f98764da
_LaTeX_LOGIC.xml_1.png=5eea457f4a5dfd27686eb033e0c9ae1
_LaTeX_LOGIC.xml_fr_FR_1.png=c67df0b2be376db98ba6674c7c560b67
_LaTeX_PerteDP.xml_1.png=aaa66cecfcbc25a73e52eb804020799
_LaTeX_QUANT_f.xml_1.png=aad18c0a88969b4c1bdc3711475796c2
_LaTeX_QUANT_f.xml_2.png=9ab0347369b93587a1fc8dbd6c6a8862
_LaTeX_RAMP.xml_1.png=c851aba90cb36bc4a4d869245c01a167
_LaTeX_READC_f.xml_1.png=17ffc102ccbc189e8e679cf183632620
_LaTeX_READC_f.xml_2.png=ec71f47b6aee7b3cd545386b93601915
_LaTeX_READC_f.xml_3.png=3def24cf259215eefdd43e76525fb473
_LaTeX_Resistor.xml_1.png=690f0f4260cdc2f68b498676f4c1d44c
_LaTeX_SAWTOOTH_f.xml_1.png=d2352f773be10a7110da96a1bf7f316d
_LaTeX_SINBLK_f.xml_1.png=bbef421f84139065997738e07d5c88d1
_LaTeX_SRFLIPFLOP.xml_1.png=abbb4819d673c4ef29f8e480d4cbfac6
_LaTeX_SRFLIPFLOP.xml_10.png=c4ca4238a0b923820dcc509a6f75849b
_LaTeX_SRFLIPFLOP.xml_11.png=cfcd208495d565ef66e7dff9f98764da
_LaTeX_SRFLIPFLOP.xml_12.png=c4ca4238a0b923820dcc509a6f75849b
_LaTeX_SRFLIPFLOP.xml_13.png=c4ca4238a0b923820dcc509a6f75849b
_LaTeX_SRFLIPFLOP.xml_14.png=cfcd208495d565ef66e7dff9f98764da
_LaTeX_SRFLIPFLOP.xml_15.png=c4ca4238a0b923820dcc509a6f75849b
_LaTeX_SRFLIPFLOP.xml_16.png=cfcd208495d565ef66e7dff9f98764da
_LaTeX_SRFLIPFLOP.xml_17.png=c4ca4238a0b923820dcc509a6f75849b
_LaTeX_SRFLIPFLOP.xml_18.png=c4ca4238a0b923820dcc509a6f75849b
_LaTeX_SRFLIPFLOP.xml_19.png=4c614360da93c0a041b22e537de151eb
_LaTeX_SRFLIPFLOP.xml_2.png=d51e152e5057f4912e42335c6ad4a29d
_LaTeX_SRFLIPFLOP.xml_20.png=4c614360da93c0a041b22e537de151eb
_LaTeX_SRFLIPFLOP.xml_3.png=4aad400c526ad874538c8881c19bf2f1
_LaTeX_SRFLIPFLOP.xml_4.png=621990decae739107d16ea4303773252
_LaTeX_SRFLIPFLOP.xml_5.png=cfcd208495d565ef66e7dff9f98764da
_LaTeX_SRFLIPFLOP.xml_6.png=cfcd208495d565ef66e7dff9f98764da
_LaTeX_SRFLIPFLOP.xml_7.png=c61079bbe12903b59894fd6443ffddcc
_LaTeX_SRFLIPFLOP.xml_8.png=cad46baa74729c22623813ff3c79123f
_LaTeX_SRFLIPFLOP.xml_9.png=cfcd208495d565ef66e7dff9f98764da
_LaTeX_SRFLIPFLOP.xml_fr_FR_19.png=dd7536794b63bf90eccfd37f9b147d7f
_LaTeX_SRFLIPFLOP.xml_fr_FR_20.png=dd7536794b63bf90eccfd37f9b147d7f
_LaTeX_STEP_FUNCTION.xml_1.png=7544adffd057978d0ddaed767ae05f25
_LaTeX_STEP_FUNCTION.xml_10.png=88d1c2d945a448f132494fd3f1f8762b
_LaTeX_STEP_FUNCTION.xml_11.png=83c38be0a5e0ccc87e01b369a38951e
_LaTeX_STEP_FUNCTION.xml_12.png=ae9633ee9e89f17bf6b6f461d70412b2
_LaTeX_STEP_FUNCTION.xml_13.png=d19b0bac1346857335abaa691e249433
_LaTeX_STEP_FUNCTION.xml_14.png=88d1c2d945a448f132494fd3f1f8762b
_LaTeX_STEP_FUNCTION.xml_15.png=83c38be0a5e0ccc87e01b369a38951e
_LaTeX_STEP_FUNCTION.xml_16.png=d19b0bac1346857335abaa691e249433
_LaTeX_STEP_FUNCTION.xml_17.png=ae9633ee9e89f17bf6b6f461d70412b2
_LaTeX_STEP_FUNCTION.xml_18.png=88d1c2d945a448f132494fd3f1f8762b
_LaTeX_STEP_FUNCTION.xml_19.png=83c38be0a5e0ccc87e01b369a38951e
_LaTeX_STEP_FUNCTION.xml_2.png=5ed2d4c114d036610b8e20271c5026ef
_LaTeX_STEP_FUNCTION.xml_3.png=5ed2d4c114d036610b8e20271c5026ef
_LaTeX_STEP_FUNCTION.xml_4.png=5ed2d4c114d036610b8e20271c5026ef
_LaTeX_STEP_FUNCTION.xml_5.png=5ed2d4c114d036610b8e20271c5026ef
_LaTeX_STEP_FUNCTION.xml_6.png=d19b0bac1346857335abaa691e249433
_LaTeX_STEP_FUNCTION.xml_7.png=88d1c2d945a448f132494fd3f1f8762b
_LaTeX_STEP_FUNCTION.xml_8.png=d19b0bac1346857335abaa691e249433
_LaTeX_STEP_FUNCTION.xml_9.png=ae9633ee9e89f17bf6b6f461d70412b2
_LaTeX_TANBLK_f.xml_1.png=65228506d7be0db07b24b865f0df3e45
_LaTeX_VARIABLE_DELAY.xml_1.png=1382fab19264d949b01a95cd2d7a6159
_LaTeX_VanneReglante.xml_1.png=23b744e7272c7ae86c4e526ad5ebbde7
_LaTeX_VanneReglante.xml_2.png=2ad9d098b937e46f9f58968551adac57
_LaTeX_VanneReglante.xml_3.png=cf915fa47dd8857fde5c36b09c7db763
_LaTeX_VanneReglante.xml_4.png=1afcdb0f704394b16fe85fb40c45ca7a
_LaTeX_VanneReglante.xml_5.png=63bb9849783d01d91403bc9a5fea12a2
_LaTeX_VariableResistor.xml_1.png=687d0cce878d1b8ec6bfc029064a6e5b
_LaTeX_VoltageSensor.xml_1.png=8ffb1ef2419edc9b239447d79b7210de
_LaTeX_VoltageSensor.xml_fr_FR_1.png=429b7d2eaa7c5fce1357c725d0ceba0a
_LaTeX_acosh.xml_1.png=fedb433f0728f6668a0245ba07f4e13f
_LaTeX_assert_computedigits.xml_1.png=82a70de2c216b6eb1951a75720fdcfc
_LaTeX_assert_computedigits.xml_2.png=27dba5ee1401d31d2106736651e99140
_LaTeX_atan.xml_1.png=bf9c1934886b64c591fe77c10bed390c
_LaTeX_atan.xml_2.png=2e1789ad9c21de80deb3c3faa3c8786c
_LaTeX_atan.xml_3.png=5e3804310dc7c19ffe0bf27d50327a07
_LaTeX_atan.xml_4.png=cc41580fcadffac5d4fff0efd2d141b3
_LaTeX_bvode.xml_1.png=7d919bf8f33698749d88e30e99c33d7c
_LaTeX_bvode.xml_2.png=417a5301693b60807fa658e5ef9f9535
_LaTeX_bvode.xml_3.png=7e3c241c2dec821bd6c6fbd314fe4762
_LaTeX_bvode.xml_4.png=67ea98c8b54fcf94a210fcd90e114aa5
_LaTeX_cdfgam.xml_1.png=fde32f1e0edeb1f6426f9add9e8640a
_LaTeX_cdfnor.xml_1.png=b86b06522195bfcbfd8f4536dfa11330
_LaTeX_ceil.xml_ru_RU_1.png=701fa44621fd283e3f2c5468958859d8
_LaTeX_cov.xml_1.png=1c3e8061d5b85a1b05a8f1c390f6f94d
_LaTeX_cross.xml_1.png=9653e9a5372afaed5d4a1ca1554ecac7
_LaTeX_csc.xml_1.png=95c11e401eed01b86b588b99436708ae
_LaTeX_csc.xml_2.png=e070fd531e084fbf4de11e4096f5d58
_LaTeX_cscd.xml_1.png=95c11e401eed01b86b588b99436708ae
_LaTeX_cscd.xml_2.png=e070fd531e084fbf4de11e4096f5d58
_LaTeX_cumprod.xml_1.png=4a71bf575ae183b006d4b3ff57b97cc4
_LaTeX_cumprod.xml_2.png=dce716c26ba9ee77970d59e48cbec6ea
_LaTeX_cumprod.xml_3.png=dac1eef2ec85e26d497e63441494fb62
_LaTeX_cumprod.xml_4.png=d82dfaf597c37928175acc260e516802
_LaTeX_cumprod.xml_5.png=2557e0856332b1a8e4a4328a56e057fd
_LaTeX_cumsum.xml_1.png=d3b46046b899184c069d6938b393faa2
_LaTeX_cumsum.xml_2.png=23dfe1e8f3cffd55bfcdf54e31c7c1cc
_LaTeX_cumsum.xml_3.png=4c76951440e86518a6c419fb7c536c05
_LaTeX_cumsum.xml_4.png=c9333b61aa171fd3a354f95f095d39eb
_LaTeX_cumsum.xml_5.png=83945d3c6a18056a1fcd585d40e11705
_LaTeX_cumsum.xml_6.png=1e00ceeb4652920c0f75ee7c5ee7f525
_LaTeX_damp.xml_1.png=f2c8fd47d5a080d24791f46bc185c706
_LaTeX_damp.xml_2.png=195246810f9bfc228bca491859062b14
_LaTeX_damp.xml_3.png=f2c8fd47d5a080d24791f46bc185c706
_LaTeX_damp.xml_4.png=195246810f9bfc228bca491859062b14
_LaTeX_damp.xml_5.png=f2c8fd47d5a080d24791f46bc185c706
_LaTeX_damp.xml_6.png=195246810f9bfc228bca491859062b14
_LaTeX_damp.xml_7.png=f2c8fd47d5a080d24791f46bc185c706
_LaTeX_damp.xml_8.png=195246810f9bfc228bca491859062b14
_LaTeX_dawson.xml_1.png=c1e5e33f1a6dda99e99cc1c174d39da3
_LaTeX_dct.xml_1.png=53d147e7f3fe6e47ee05b88b166bd3f6
_LaTeX_dct.xml_10.png=c1281c78101880b1bfd5f00d8fe3f654
_LaTeX_dct.xml_11.png=1e1e8ea97c8590c4f0cf49f45885bfdb
_LaTeX_dct.xml_12.png=f28152d5910cdadab309239834b072b3
_LaTeX_dct.xml_2.png=55a049b8f161ae7cfeb0197d75aff967
_LaTeX_dct.xml_3.png=2ab8327da7f356aa24836048a42c8d6a
_LaTeX_dct.xml_4.png=6003d73578178d83c8a456a7a75cd0cc
_LaTeX_dct.xml_5.png=ed83da2f4b4974d79b615fa756ccad16
_LaTeX_dct.xml_6.png=e0b5525d8028e14e0b966cc618e3891f
_LaTeX_dct.xml_7.png=3a9347912eb63f0db13e7755e6222774
_LaTeX_dct.xml_8.png=c0e3f553bdf2b00785d85a88c070d7ac
_LaTeX_dct.xml_9.png=1e1e8ea97c8590c4f0cf49f45885bfdb
_LaTeX_dct.xml_ja_JP_1.png=55a049b8f161ae7cfeb0197d75aff967
_LaTeX_dct.xml_ja_JP_2.png=53d147e7f3fe6e47ee05b88b166bd3f6
_LaTeX_derivat.xml_1.png=884753c7c6265a65bb3803b66a0fec59
_LaTeX_derivat.xml_2.png=1f26913a320e0f43588894e762729d16
_LaTeX_dst.xml_1.png=55a049b8f161ae7cfeb0197d75aff967
_LaTeX_dst.xml_10.png=487b751549c27e45c6f346757a948f45
_LaTeX_dst.xml_11.png=55a049b8f161ae7cfeb0197d75aff967
_LaTeX_dst.xml_12.png=1c1c3e34d789b6c231379d588dbf6228
_LaTeX_dst.xml_2.png=9cd22909f8eca591c252c206124e482f
_LaTeX_dst.xml_3.png=55a049b8f161ae7cfeb0197d75aff967
_LaTeX_dst.xml_4.png=d35f934540a4804eb1475655fa5bd72b
_LaTeX_dst.xml_5.png=55a049b8f161ae7cfeb0197d75aff967
_LaTeX_dst.xml_6.png=caa2ed7797bbc39b3a28cb86ce6ce771
_LaTeX_dst.xml_7.png=55a049b8f161ae7cfeb0197d75aff967
_LaTeX_dst.xml_8.png=e0b5525d8028e14e0b966cc618e3891f
_LaTeX_dst.xml_9.png=55a049b8f161ae7cfeb0197d75aff967
_LaTeX_eig.xml_1.png=2547e4ad6c49d3508def1b1e6cdc420c
_LaTeX_erf.xml_1.png=e64af8badd1634f233888753939db01d
_LaTeX_erfc.xml_1.png=be98f7db5bd298ff2c38bce2e7bb90dd
_LaTeX_erfcx.xml_1.png=3e69185b6882d8edc7e54d751156dc18
_LaTeX_erfcx.xml_2.png=5feafbda8ba8a657c647a355fb122b49
_LaTeX_erfi.xml_1.png=98b6a64c2482c6be60499c854c70a678
_LaTeX_fft.xml_1.png=30d788e922f7acbb3ef6f5d2d70bb96b
_LaTeX_fft.xml_2.png=4b7b41681f5cfbcb0af74e4cc3ab99fc
_LaTeX_filter.xml_1.png=f5eab130f2e7fd10b80a402952421a05
_LaTeX_floor.xml_ru_RU_1.png=1d5ba78bbbafd3226f371146bc348363
_LaTeX_grand.xml_1.png=dd59088e24bed7a6af5a6ccd16e58616
_LaTeX_grand.xml_2.png=4065036eed5d60beaa7f246c013cbff0
_LaTeX_grand.xml_3.png=d5a9af412d8ef497e04f99d707a50550
_LaTeX_grand.xml_4.png=4065036eed5d60beaa7f246c013cbff0
_LaTeX_grand.xml_5.png=c21b0f50c56f0b69ce3aa3804af1eab5
_LaTeX_grand.xml_6.png=9e9e948ed4f32437b1ac21b4afe39ff2
_LaTeX_grand.xml_7.png=7a58d133be93f529513e15fbb6ea7827
_LaTeX_hank.xml_1.png=fc6c604bc8c86af20a8f0673047332db
_LaTeX_histc.xml_1.png=f1c5acc5939d55326dfab4af50e13f97
_LaTeX_histplot.xml_1.png=f1c5acc5939d55326dfab4af50e13f97
_LaTeX_interp.xml_1.png=b99c07a3557a83033fdeedd84352b082
_LaTeX_interp.xml_10.png=e257b3b19cc16006687169337c38dc2a
_LaTeX_interp.xml_11.png=b99c07a3557a83033fdeedd84352b082
_LaTeX_interp.xml_12.png=1b2f3bb672a0272118a4a5756f60e313
_LaTeX_interp.xml_13.png=63112ca7b52e860cbdf2c4e8f32d127
_LaTeX_interp.xml_14.png=45349fa244c7cf3bf475f6360448d8e8
_LaTeX_interp.xml_15.png=26dbe58a0af31c9a287b1ed12548b1ad
_LaTeX_interp.xml_16.png=80713e5b0db4cfd0d1f82ef6b7409f5f
_LaTeX_interp.xml_17.png=b606c195be3b43e9632f16b357dcbf5f
_LaTeX_interp.xml_18.png=523e15997bbcfb35ce581383bfbe32bb
_LaTeX_interp.xml_19.png=e94e266d7e263d023e3956d4b2e2d26b
_LaTeX_interp.xml_2.png=b99c07a3557a83033fdeedd84352b082
_LaTeX_interp.xml_20.png=438e7bad79ac0ec9da84dded9b866f81
_LaTeX_interp.xml_3.png=8deb7b9a72dac2aeba82fa7fdfacf687
_LaTeX_interp.xml_4.png=56d2b17e28c60243900e18a080e97bd1
_LaTeX_interp.xml_5.png=381510b6a72b83c1de0ed29c32802667
_LaTeX_interp.xml_6.png=97a436e3c7e046a032d8b7c208ac6c5f
_LaTeX_interp.xml_7.png=6c0d9f7886f17efb4fe36545b65eb94c
_LaTeX_interp.xml_8.png=b16331480220199f6fd8e9a9bd614c6e
_LaTeX_interp.xml_9.png=afdbe6ecdab399c07c08919d1e223e98
_LaTeX_karmarkar.xml_1.png=d4caed1162e3a4116b6de31699414bfd
_LaTeX_karmarkar.xml_2.png=2ca594f519a9251e53881be26d312348
_LaTeX_karmarkar.xml_3.png=36126a3292c13a18842b1e8f99e18b31
_LaTeX_karmarkar.xml_4.png=2379757f440c07ab9aeffe1b508f75b6
_LaTeX_karmarkar.xml_5.png=a35a1551eae946884ef2780daf3217c9
_LaTeX_karmarkar.xml_6.png=d7299efdc04def35c6a385007dd15a94
_LaTeX_lattn.xml_1.png=7ba64bdfad2c53fb336f12443f4926c6
_LaTeX_lattn.xml_2.png=9b7ed107c9acb432bc04c8505b9d96ce
_LaTeX_lattp.xml_1.png=7ba64bdfad2c53fb336f12443f4926c6
_LaTeX_leastsq.xml_1.png=3d52f8613fe5a2330979b844cd60da0b
_LaTeX_levin.xml_1.png=7ba64bdfad2c53fb336f12443f4926c6
_LaTeX_levin.xml_2.png=f524fdf11d769933d7138962185e2606
_LaTeX_lft.xml_1.png=dc31caa4ca7b8e599933934a98dc2262
_LaTeX_lft.xml_2.png=f7625220850cedf58636ea45c8bb27ca
_LaTeX_logspace.xml_1.png=d67b97a2acf408e18565a63291c46b5a
_LaTeX_logspace.xml_2.png=f3494bb39bebc09734755a69db8646d9
_LaTeX_logspace.xml_3.png=b4b51b16a1b70e75f1e7a7dacd7052bb
_LaTeX_logspace.xml_4.png=d67b97a2acf408e18565a63291c46b5a
_LaTeX_logspace.xml_5.png=4f08e3dba63dc6d40b22952c7a9dac6d
_LaTeX_lqe.xml_1.png=7b2750c6fbb5bb6287223136d920a603
_LaTeX_lqe.xml_10.png=b93a17b7fd76d5c68f724589d46ca753
_LaTeX_lqe.xml_11.png=f1290186a5d0b1ceab27f4e77c0c5d68
_LaTeX_lqe.xml_12.png=ad50fa6403bff8c2043858599ebb72b0
_LaTeX_lqe.xml_13.png=a06e752629a0995fd56673195e8d34e8
_LaTeX_lqe.xml_14.png=f1290186a5d0b1ceab27f4e77c0c5d68
_LaTeX_lqe.xml_15.png=715b99d59a94d37cda6f1723dedca291
_LaTeX_lqe.xml_16.png=5755ad79ed20d6a77890207206dd915b
_LaTeX_lqe.xml_17.png=bb34e1d2e08c29670191ca136cbac8d2
_LaTeX_lqe.xml_18.png=5badfadfca879cb7064fcd4f40c522a9
_LaTeX_lqe.xml_19.png=2781a5bef63099764888ea22e2adeddc
_LaTeX_lqe.xml_2.png=9b6138425e4dd689875020cd12bc6f04
_LaTeX_lqe.xml_20.png=9dd4e461268c8034f5c8564e155c67a6
_LaTeX_lqe.xml_21.png=cbb3748eb766e71675c4714ca8bf5a9b
_LaTeX_lqe.xml_22.png=c38bcd34fb01bade9486279742cea1fc
_LaTeX_lqe.xml_23.png=bf908bb61c5b1ef8fec9a7b2d172b70c
_LaTeX_lqe.xml_24.png=c1d48fc273dbac931111aa6bd05ce612
_LaTeX_lqe.xml_25.png=c820017a3891c52f74b4af1e1e80440d
_LaTeX_lqe.xml_26.png=3d73256fa5fc7d785e9b3f2e14a18921
_LaTeX_lqe.xml_27.png=587b3ba0f06a7b590f9632d7c37ff8c0
_LaTeX_lqe.xml_28.png=c76c57d5a1f43cdcb78069c14fac2e48
_LaTeX_lqe.xml_29.png=e1671797c52e15f763380b45e841ec32
_LaTeX_lqe.xml_3.png=9b8c6354dc7823bdd14b9dbc5c8d4af0
_LaTeX_lqe.xml_30.png=2ff2e5b11ffe2940c512b397fb913bde
_LaTeX_lqe.xml_31.png=ad99c0204d143506eaa23d712bda9f3b
_LaTeX_lqe.xml_32.png=9e3669d19b675bd57058fd4664205d2a
_LaTeX_lqe.xml_33.png=f239cba6f88528ca4b3132810519b031
_LaTeX_lqe.xml_34.png=201f41398fd05e1281b0933332345998
_LaTeX_lqe.xml_35.png=e1671797c52e15f763380b45e841ec32
_LaTeX_lqe.xml_36.png=9e3669d19b675bd57058fd4664205d2a
_LaTeX_lqe.xml_37.png=239b7d4129280ce374c9d4682e9c889
_LaTeX_lqe.xml_4.png=25d24c06085cdb3e981cd2fb3c110078
_LaTeX_lqe.xml_5.png=9d5ed678fe57bcca610140957afab571
_LaTeX_lqe.xml_6.png=f623e75af30e62bbd73d6df5b50bb7b5
_LaTeX_lqe.xml_7.png=78257f2bb2a4f8bc0b8dc8a0cacb557a
_LaTeX_lqe.xml_8.png=92d2476ea4c425567456e49af56d97b2
_LaTeX_lqe.xml_9.png=bdda948300dd77aa5c41682d805013d9
_LaTeX_lqg.xml_1.png=c76c57d5a1f43cdcb78069c14fac2e48
_LaTeX_lqg.xml_10.png=1f306842a1aaf87da7fa8538d1037bac
_LaTeX_lqg.xml_11.png=596b38632afcc3eb32ef80ddc2e0875e
_LaTeX_lqg.xml_12.png=ad99c0204d143506eaa23d712bda9f3b
_LaTeX_lqg.xml_13.png=ad99c0204d143506eaa23d712bda9f3b
_LaTeX_lqg.xml_2.png=e1671797c52e15f763380b45e841ec32
_LaTeX_lqg.xml_3.png=2ff2e5b11ffe2940c512b397fb913bde
_LaTeX_lqg.xml_4.png=ad99c0204d143506eaa23d712bda9f3b
_LaTeX_lqg.xml_5.png=9e3669d19b675bd57058fd4664205d2a
_LaTeX_lqg.xml_6.png=28773fb26211b6fbcf412437ff1eefe3
_LaTeX_lqg.xml_7.png=70365cbb43562acf91a858531234f57b
_LaTeX_lqg.xml_8.png=e1671797c52e15f763380b45e841ec32
_LaTeX_lqg.xml_9.png=9e3669d19b675bd57058fd4664205d2a
_LaTeX_lqg2stan.xml_1.png=8c0dc115d0f9cb4dcaccdfd1e02ae037
_LaTeX_lqg2stan.xml_2.png=f3c0eb249d6e31a765bd08b17267dc2c
_LaTeX_lqg2stan.xml_3.png=eddf29e58b37c9c2e559a7aee3b6040
_LaTeX_lqg2stan.xml_4.png=ff0275c1774bec55adcca8e953b7c652
_LaTeX_lqi.xml_1.png=202f052d5f7c4c1a87e603671bba4515
_LaTeX_lqi.xml_2.png=b14564b39fe1a3290dea9744c44db445
_LaTeX_lqi.xml_3.png=576256a0e3b53b1cb60a9ca8b225eca9
_LaTeX_lqi.xml_4.png=e351637f0212051af61bc20ea656e0cd
_LaTeX_lqi.xml_5.png=1ba8aaab47179b3d3e24b0ccea9f4e30
_LaTeX_lqi.xml_6.png=353544387bfdd0c86d8f2176e0366928
_LaTeX_lqi.xml_7.png=6ab1f7ce29d37d19e7d4654197a837a0
_LaTeX_lqi.xml_8.png=e1e1d3d40573127e9ee0480caf1283d6
_LaTeX_lqr.xml_1.png=31037a1c8787d84003f44ab8d2f105c8
_LaTeX_lqr.xml_10.png=9d76a9329d78bc9b07b78b8c218c9b9f
_LaTeX_lqr.xml_11.png=c4845e8ba7f75f02530532af11fb7a95
_LaTeX_lqr.xml_12.png=4f6dd247e1f511ea66298c4c2a76bb94
_LaTeX_lqr.xml_13.png=9b07ec4ea01fab629f00fa94993ac60
_LaTeX_lqr.xml_14.png=c5cd7e3f5ea453e798ef0d5e0cbe734c
_LaTeX_lqr.xml_15.png=1645328711c5c5406c0bff794c3afd40
_LaTeX_lqr.xml_16.png=e1e1d3d40573127e9ee0480caf1283d6
_LaTeX_lqr.xml_17.png=a1ed7cb6e0f70c2954cddb6492dea82b
_LaTeX_lqr.xml_18.png=c76c57d5a1f43cdcb78069c14fac2e48
_LaTeX_lqr.xml_19.png=e1671797c52e15f763380b45e841ec32
_LaTeX_lqr.xml_2.png=a1b02896c5a8fde0c723ae52a73fb10a
_LaTeX_lqr.xml_20.png=2ff2e5b11ffe2940c512b397fb913bde
_LaTeX_lqr.xml_21.png=ad99c0204d143506eaa23d712bda9f3b
_LaTeX_lqr.xml_22.png=1ff37d28f9419ed44a429337f23eb752
_LaTeX_lqr.xml_23.png=70365cbb43562acf91a858531234f57b
_LaTeX_lqr.xml_24.png=1f6bd1edd1312918b4725b58adec08fe
_LaTeX_lqr.xml_3.png=67b8465c0729d9a01cbbb3b0e4a3dac7
_LaTeX_lqr.xml_4.png=ce955c2a6d03709ed435271aaeaa31f3
_LaTeX_lqr.xml_5.png=5c85d3073918365603cc53f2dce2f6ec
_LaTeX_lqr.xml_6.png=28082853172fb424e32416dc76b5a5af
_LaTeX_lqr.xml_7.png=5db182509b3c3c5a483f581b371a3bdb
_LaTeX_lqr.xml_8.png=5c85d3073918365603cc53f2dce2f6ec
_LaTeX_lqr.xml_9.png=fc7641c2a5d896df8b93e19c2b37f2d0
_LaTeX_mucomp.xml_1.png=967878d1da852d4b07a961e3168b0fff
_LaTeX_mucomp.xml_2.png=967878d1da852d4b07a961e3168b0fff
_LaTeX_mucomp.xml_3.png=524e0d37a8f7dea67126383230d95a55
_LaTeX_mucomp.xml_4.png=967878d1da852d4b07a961e3168b0fff
_LaTeX_mucomp.xml_5.png=f21e35b6824e0fd0039b478e8d14a95f
_LaTeX_mucomp.xml_6.png=967878d1da852d4b07a961e3168b0fff
_LaTeX_number_properties.xml_1.png=e44429416209c43ee6736fc6e4fb475e
_LaTeX_number_properties.xml_2.png=672a7aeac9254219b9609330a12e55e5
_LaTeX_number_properties.xml_3.png=e0fec874e861bbf6bd95ae5bdd8df9e3
_LaTeX_number_properties.xml_4.png=3cbbce1fe1125d9cf1a92243b1091a6
_LaTeX_number_properties.xml_5.png=9b14e66e7f791eab3fc3872c25023696
_LaTeX_number_properties.xml_6.png=bf4a89be3c0a01be7a28b3ac7ae25db7
_LaTeX_number_properties.xml_7.png=9b14e66e7f791eab3fc3872c25023696
_LaTeX_numderivative.xml_1.png=acf266aee60273f7f847b316d7d5e3fb
_LaTeX_ode.xml_1.png=84ae2f6a526a30f59b67ce587fcd28c9
_LaTeX_pack.xml_1.png=44e43279e4a6173003d2e27d996c92e5
_LaTeX_percente.xml_1.png=d35411f104304697e6fd27751ab66fc5
_LaTeX_percente.xml_2.png=3be181064c31bd09ccf0caddf10b3e85
_LaTeX_percentpi.xml_1.png=4f08e3dba63dc6d40b22952c7a9dac6d
_LaTeX_prod.xml_1.png=5a314d76d3342cb017a069e00be89bc
_LaTeX_prod.xml_2.png=36e17bceced31cceba9ae0745b814988
_LaTeX_prod.xml_3.png=cd9dd14f63c05c574d2b9d7af5f12b38
_LaTeX_prod.xml_4.png=328f426a2ba5a5c8addff7ed0856f865
_LaTeX_prod.xml_5.png=57033343009b691a8288617953c2dd43
_LaTeX_rand.xml_1.png=c86bd4c81b7485ca6fd5d1563e3b8208
_LaTeX_rand.xml_2.png=2288ff3358d7f7dea0345637c6e7d71e
_LaTeX_rand.xml_3.png=1cce587224cf855392f5a2914a17421c
_LaTeX_sec.xml_1.png=d2e78d675321c767e8087462a85491e2
_LaTeX_sec.xml_2.png=e070fd531e084fbf4de11e4096f5d58
_LaTeX_sec.xml_3.png=4d00d79b6733c9cc066584a02ed03410
_LaTeX_secd.xml_1.png=d2e78d675321c767e8087462a85491e2
_LaTeX_secd.xml_2.png=9af168bb87444b2c3761887bca4d414
_LaTeX_sech.xml_1.png=3e705c85e93210d8075ad47b8cbd3252
_LaTeX_semidef.xml_1.png=69da8dee51aab98296232a5bc939053a
_LaTeX_semidef.xml_2.png=9852782930e4e21c7115f35f70ab0966
_LaTeX_semidef.xml_3.png=2098b9e5e447ece7cd838247adcb262b
_LaTeX_semidef.xml_4.png=44e43279e4a6173003d2e27d996c92e5
_LaTeX_ss2zp.xml_1.png=b03e0f26548784f834e2978d640ded24
_LaTeX_sum.xml_1.png=ef9aafe044823d17d08371770fa73e9f
_LaTeX_sum.xml_2.png=b4f505fff21a34a842c50a707dd320ee
_LaTeX_sum.xml_3.png=d612fb0515b4c079f4601c435d6d0206
_LaTeX_sum.xml_4.png=4948a5e8e21b96de5f899532c095edc0
_LaTeX_sum.xml_5.png=87d06d76f76c0309af6fcc07606b889a
_LaTeX_sysdiag.xml_1.png=26bcad469ac051064707c071f102456c
_LaTeX_xcorr.xml_1.png=cf889f12f575a8118808df4285699794
_LaTeX_xcorr.xml_10.png=3f3494a0a3abbd8e6f2fac7ab1fb4fe0
_LaTeX_xcorr.xml_11.png=9b325b9e31e85137d1de765f43c0f8bc
_LaTeX_xcorr.xml_2.png=7c6900bf9dda13f19533733a83b7849d
_LaTeX_xcorr.xml_3.png=ad65fb02a06736c6abc832f4858ddc40
_LaTeX_xcorr.xml_4.png=7c6900bf9dda13f19533733a83b7849d
_LaTeX_xcorr.xml_5.png=81cce9f294bb0778ae1cb2287891dfec
_LaTeX_xcorr.xml_6.png=c01ec812581580aaad72dcd9ac205fe4
_LaTeX_xcorr.xml_7.png=9b325b9e31e85137d1de765f43c0f8bc
_LaTeX_xcorr.xml_8.png=9b325b9e31e85137d1de765f43c0f8bc
_LaTeX_xcorr.xml_9.png=9b325b9e31e85137d1de765f43c0f8bc
_LaTeX_xcov.xml_1.png=bd647703daba20ec9bdcbd4990f9b870
_LaTeX_xcov.xml_10.png=3f3494a0a3abbd8e6f2fac7ab1fb4fe0
_LaTeX_xcov.xml_11.png=9b325b9e31e85137d1de765f43c0f8bc
_LaTeX_xcov.xml_2.png=7c6900bf9dda13f19533733a83b7849d
_LaTeX_xcov.xml_3.png=c3aca862f464e22afc94aaab24f6785f
_LaTeX_xcov.xml_4.png=7c6900bf9dda13f19533733a83b7849d
_LaTeX_xcov.xml_5.png=81cce9f294bb0778ae1cb2287891dfec
_LaTeX_xcov.xml_6.png=c01ec812581580aaad72dcd9ac205fe4
_LaTeX_xcov.xml_7.png=9b325b9e31e85137d1de765f43c0f8bc
_LaTeX_xcov.xml_8.png=9b325b9e31e85137d1de765f43c0f8bc
_LaTeX_xcov.xml_9.png=9b325b9e31e85137d1de765f43c0f8bc
_MathML_bvode.xml_1.png=59ed6d548d1dd196562b40c2156fc0b5
_MathML_bvode.xml_10.png=32dee1f6fd70c8d056d1a9682421da08
_MathML_bvode.xml_11.png=60db5d62c85d0387f36e98e6837dbd33
_MathML_bvode.xml_12.png=7dc1b31764427eded50f68202155a8a9
_MathML_bvode.xml_13.png=b6db874e38fe0d68e524be430ec060ad
_MathML_bvode.xml_14.png=c57bdb3034b8d1522bc1b4c11d2f61dd
_MathML_bvode.xml_15.png=ed2fe95a3d9950b0a064c906b3d16ec5
_MathML_bvode.xml_16.png=a64f0d2beafcdf8439f58c800f97601
_MathML_bvode.xml_17.png=249b48aa0c3ecbe78f48e272829a8d81
_MathML_bvode.xml_2.png=59ed6d548d1dd196562b40c2156fc0b5
_MathML_bvode.xml_3.png=33b8fd257f3d303336f499095f6b5fb6
_MathML_bvode.xml_4.png=92cb8dfb9998786825c066ff41eeb720
_MathML_bvode.xml_5.png=c863531c689fb682670135ceb613c957
_MathML_bvode.xml_6.png=1ed4c935d2284b40682e057678b17370
_MathML_bvode.xml_7.png=dbfb90b14e8984ee213639732f1eb0b1
_MathML_bvode.xml_8.png=4bcb1817068a699caeb5b1d9aeac2e2d
_MathML_bvode.xml_9.png=3b57ed40251a3a9a66f84e960d45b517
_MathML_bvode.xml_ru_RU_10.png=feaee80fc677920029dac0d5b539507a
_MathML_bvode.xml_ru_RU_17.png=1f47e9a3a469e6f8e4fee9cefe7ccc38
_MathML_bvode.xml_ru_RU_7.png=bf99445553185140244e57466f859bd5
_MathML_convol.xml_1.png=99ca156723e23394e879c2035745d736
_MathML_cspect.xml_1.png=1219d0564561afe97ea367612399e26a
_MathML_delip.xml_1.png=69d9a5b9453c4b10349d9c25e33f0a64
_MathML_integrate.xml_1.png=905e696eacda4fe1df6c72b6bbb8a0d3
_MathML_integrate.xml_2.png=e674adcfdb3435295438f0d040596095
_MathML_integrate.xml_fr_FR_1.png=797aceb1aba80a1d083dc5963bcc22a2
_MathML_integrate.xml_pt_BR_1.png=797aceb1aba80a1d083dc5963bcc22a2
_MathML_integrate.xml_ru_RU_1.png=797aceb1aba80a1d083dc5963bcc22a2
_MathML_pspect.xml_1.png=1219d0564561afe97ea367612399e26a
acos_1.png=17d595e24e7d60478a837a3b8abe0798
acosd_1.png=a933487424afe251b71aaf38fb285f1c
acosh_1.png=a4c877a5afc85aa549c2b29e0fd8507a
acot_1.png=a102809de68b60a3b3d26ff22f77b598
acotd_1.png=8c6cc74d7cd9304c123d573409dcd01f
acoth_1.png=d6d4fa73c056224341009d0ed4735abd
acsc_1.png=4fd05d7d355266d821063c9a6c26abb0
acscd_1.png=6e599765c5f8d0e189002d51f2d9068a
acsch_1.png=15259a5eaa158abd0fd70e05b27d69eb
addcolor_1.png=7e5f272c2700aafbd41da8efd8e9d8eb
analpf_1.png=6d59d9510e91abd50fcfd04a4b129d93
analyze_1.png=f618685a506715b35493fcc61fe78a25
arl2_1.png=8f7b10fe894dbb9e21a4f965de0fe07
arma_en_US_1.png=dc5f992783f4db687e23a65866dac816
arma_fr_FR_1.png=dc5f992783f4db687e23a65866dac816
arma_ja_JP_1.png=dc5f992783f4db687e23a65866dac816
arma_pt_BR_1.png=dc5f992783f4db687e23a65866dac816
arma_ru_RU_1.png=dc5f992783f4db687e23a65866dac816
armax_1.png=5fdbed31dc9b8fb80884b5d96fe7b2a2
asec_1.png=baebf8dc0568c70996c9d3aa9418165d
asecd_1.png=5dafaa5b46f5ed7d0f80b33a10835429
asin_1.png=2bf3e9d21cf149b4baf4685c2c4061a3
asind_1.png=228e297136b7b30666241d462f5c58c8
asinh_1.png=487c5932acafb700ce3ff3da7dc485a3
atand_1.png=8c5dae12354712ac3fab90999228771c
autumncolormap_1.png=826c2a0572e5c987444f8bb7d9e66b
bar_1.png=968aa7a4f076bc4bd450f5ad25845434
bar_2.png=f4c4662565d146bc03ba40b0344897aa
bar_3.png=e658d6bd8080ca95d71ef70c5431f7c8
bar_4.png=1e414775f31d29efa63acda837818019
barh_1.png=b708acffc2f268acecbfc73aa846675
barh_2.png=b0c9fd105c8654d8bd29d5653638e090
barh_3.png=3c8e049a779aa39557f06c0f1100d9de
barh_4.png=d512ecebeca33e008379e73a9b7e4ee0
barhomogenize_1.png=be26fcf2379896a04bcdb3e05f43df1e
barhomogenize_2.png=7a71570219dfa35d04bcfd96ed3659df
bessel_1.png=a99ebb6beeb99537ca3ab9d1b15f707c
bessel_2.png=b812fd51dfafe021ced32d86d51c792
bessel_3.png=cbce4edf613965d74ad8327f769ef4e8
bessel_4.png=7c5e6fac573e8d508aa927ec3dddd624
bessel_5.png=bf55cc481de665edbb4bbd2c158f1e75
bessel_6.png=46b3911d5e234cc03d8792d7b2754ad1
beta_1.png=9a1befb2ccdf46fa61740e5497f20626
beta_2.png=4a9f22fd027c5b6bb3c5609603e481b
black_en_US_1.png=3a12354aa40f1e274c76fc0756eebecf
black_en_US_2.png=6cc1b3c0517fd885c2fb0a8d343d1835
black_fr_FR_1.png=3a12354aa40f1e274c76fc0756eebecf
black_fr_FR_2.png=6cc1b3c0517fd885c2fb0a8d343d1835
black_ja_JP_1.png=770c307a0e4d098c28779e5a44f81254
black_ja_JP_2.png=ee58e288bb9d9bb9351327e010716613
black_pt_BR_1.png=3a12354aa40f1e274c76fc0756eebecf
black_pt_BR_2.png=6cc1b3c0517fd885c2fb0a8d343d1835
black_ru_RU_1.png=3a12354aa40f1e274c76fc0756eebecf
black_ru_RU_2.png=6cc1b3c0517fd885c2fb0a8d343d1835
bode_asymp_en_US_1.png=a2a6af7a449aa3405d2f471484ccf87f
bode_asymp_en_US_2.png=8e047cf20d83ed164a9986439ee57bd5
bode_asymp_en_US_3.png=13240a8758ff7620cbb83db8f7b3d708
bode_asymp_en_US_4.png=3abb4ef99eec204ffed235288afcf022
bode_asymp_fr_FR_1.png=e0aa9c2f2486ca5dd0b1a9b668e9b7e5
bode_asymp_fr_FR_2.png=23ee6639f39e8def9e6275d3913f0eaa
bode_asymp_fr_FR_3.png=13240a8758ff7620cbb83db8f7b3d708
bode_asymp_fr_FR_4.png=3abb4ef99eec204ffed235288afcf022
bode_asymp_ja_JP_1.png=a2a6af7a449aa3405d2f471484ccf87f
bode_asymp_ja_JP_2.png=8e047cf20d83ed164a9986439ee57bd5
bode_asymp_ja_JP_3.png=13240a8758ff7620cbb83db8f7b3d708
bode_asymp_ja_JP_4.png=3abb4ef99eec204ffed235288afcf022
bode_asymp_pt_BR_1.png=a2a6af7a449aa3405d2f471484ccf87f
bode_asymp_pt_BR_2.png=8e047cf20d83ed164a9986439ee57bd5
bode_asymp_pt_BR_3.png=13240a8758ff7620cbb83db8f7b3d708
bode_asymp_pt_BR_4.png=3abb4ef99eec204ffed235288afcf022
bode_asymp_ru_RU_1.png=a2a6af7a449aa3405d2f471484ccf87f
bode_asymp_ru_RU_2.png=8e047cf20d83ed164a9986439ee57bd5
bode_asymp_ru_RU_3.png=13240a8758ff7620cbb83db8f7b3d708
bode_asymp_ru_RU_4.png=3abb4ef99eec204ffed235288afcf022
bode_en_US_1.png=5d7c38b094cee911ec2cc42dd7050176
bode_en_US_2.png=3a40a98fd3fb7a58e9f8282a4b515f71
bode_en_US_3.png=29f4cadff9611f6dab32471429e7bdf7
bode_fr_FR_1.png=5d7c38b094cee911ec2cc42dd7050176
bode_fr_FR_2.png=3a40a98fd3fb7a58e9f8282a4b515f71
bode_fr_FR_3.png=29f4cadff9611f6dab32471429e7bdf7
bode_ja_JP_1.png=87ec396c51a7cc6aafb148e1aa5f9256
bode_ja_JP_2.png=95d29219903b7e027aef6a1618855bc0
bode_ja_JP_3.png=29f4cadff9611f6dab32471429e7bdf7
bode_pt_BR_1.png=5d7c38b094cee911ec2cc42dd7050176
bode_pt_BR_2.png=3a40a98fd3fb7a58e9f8282a4b515f71
bode_pt_BR_3.png=29f4cadff9611f6dab32471429e7bdf7
bode_ru_RU_1.png=5d7c38b094cee911ec2cc42dd7050176
bode_ru_RU_2.png=3a40a98fd3fb7a58e9f8282a4b515f71
bode_ru_RU_3.png=29f4cadff9611f6dab32471429e7bdf7
bonecolormap_1.png=92247210e578a35b3770d67e94bae718
buttmag_1.png=9fff0bd432661a67efdde3c0c3a34465
bvode_en_US_1.png=f5839719400ab9f8ae4004c3c7bad4ff
bvode_en_US_2.png=16a5a1c05729984b06b71424fd39500c
bvode_fr_FR_1.png=f5839719400ab9f8ae4004c3c7bad4ff
bvode_fr_FR_2.png=16a5a1c05729984b06b71424fd39500c
bvode_ja_JP_1.png=f5839719400ab9f8ae4004c3c7bad4ff
bvode_ja_JP_2.png=16a5a1c05729984b06b71424fd39500c
bvode_pt_BR_1.png=f5839719400ab9f8ae4004c3c7bad4ff
bvode_pt_BR_2.png=16a5a1c05729984b06b71424fd39500c
bvode_ru_RU_1.png=1ec0025ccdfee64f2785ae3083fa63b
bvode_ru_RU_2.png=eb485a8d1f0ab93548d79a2b6bff5bff
calfrq_1.png=f4cfd31e6a05d4149c567c01272f96a
captions_1.png=19ddf03ac04cd2b8ebbed9f218dbaa3e
cdfbet_1.png=311cb1e4fb872d6f82b2dcafaa5911d1
cdfbin_1.png=6fd656ebfb423bc5fcf3fdc7e1a82aa8
cdfnor_1.png=3ff24d742eb574cda6f7ca5f8aa38ffe
cdfnor_en_US_2.png=f6deb7f340aad408031249884d3849e0
cdfnor_fr_FR_2.png=90c71ed70c33396383ca3acf8b780c5a
cdfnor_ja_JP_2.png=f6deb7f340aad408031249884d3849e0
cdfnor_pt_BR_2.png=f6deb7f340aad408031249884d3849e0
cdfnor_ru_RU_2.png=f6deb7f340aad408031249884d3849e0
cepstrum_1.png=455b8e394db80f8bb6fb8c656a069af3
champ1_1.png=d2aacf45d80c8edf7c95a54af1533ce4
champ1_2.png=bc00271f4944a350125eb5b3c40d48c1
champ_1.png=c0e293f757cc87203308abb3d0bd5823
champ_2.png=83eb5af09a3e46812639bf482ce290e4
champ_3.png=e46cb90fcd5bcc2552ee046eb1a1f216
champ_4.png=e46cb90fcd5bcc2552ee046eb1a1f216
champ_properties_1.png=6409c708318038fda6b54aacc96937eb
cheb1mag_1.png=3b26f5856ff8a2bcfbcf78e2d77cb5c1
cheb2mag_1.png=d53206e41bccd28401ab6309ce2f941a
color_1.png=8c94d2cd086d9ccb4ebc994bfd2dcf32
colorbar_en_US_1.png=7cc33a9874a2651d43d210e6dcf8f54a
colorbar_en_US_2.png=e44d0795021840a00d2de77c842c8b94
colorbar_en_US_3.png=1a6ca0174eac3131a98e7958423740ef
colorbar_fr_FR_1.png=7cc33a9874a2651d43d210e6dcf8f54a
colorbar_fr_FR_2.png=e44d0795021840a00d2de77c842c8b94
colorbar_fr_FR_3.png=1a6ca0174eac3131a98e7958423740ef
colorbar_ja_JP_1.png=7cc33a9874a2651d43d210e6dcf8f54a
colorbar_ja_JP_2.png=e44d0795021840a00d2de77c842c8b94
colorbar_ja_JP_3.png=1a6ca0174eac3131a98e7958423740ef
colorbar_ru_RU_1.png=7cc33a9874a2651d43d210e6dcf8f54a
colorbar_ru_RU_2.png=e44d0795021840a00d2de77c842c8b94
colorbar_ru_RU_3.png=1a6ca0174eac3131a98e7958423740ef
colordef_1.png=b862d25fe3199de144cb45c810a43085
colordef_2.png=8dffacb993e0972367eaabb29383154f
colordef_3.png=d2d2bbfdf2fa2104f8c2fae819d48c49
colormap_1.png=34ff30f6dc35ee879709c132e444cf23
contour2d_1.png=ca9b620f09fbcc77799e2286b6730e2d
contour2d_2.png=e618038e4b44d84ce4b6ae2fe5420951
contour2d_3.png=e618038e4b44d84ce4b6ae2fe5420951
contour2d_en_US_3.png=b210ca5f70b33677912b389f9712db1a
contour2d_fr_FR_3.png=b210ca5f70b33677912b389f9712db1a
contour2d_ja_JP_3.png=b210ca5f70b33677912b389f9712db1a
contour2d_ja_JP_4.png=b210ca5f70b33677912b389f9712db1a
contour2d_ru_RU_3.png=4c61560bd18df7e242044268caf62b35
contour2dm_1.png=31a3b6c2aaa5ae5cfa0cf185d3a76caa
contour2dm_2.png=f90a7ebef7685645fd3d5c2583b27f93
contour_1.png=d285038265f8a3d989244534a70de17a
contour_2.png=ac789923af59117fd684f6b073e1341a
contour_3.png=634fbf34f0fd9907ddcf7a2faca80a9f
contourf_1.png=97e4db28e729f0b311fc4fc9c6ab7b4d
contourf_2.png=bf6e9c2ff998dbb38979cfb72616c52e
coolcolormap_1.png=7f2f2f75aa4a87ce1f3ddc2f579aed8a
coppercolormap_1.png=fa3c836b1428445343c73fc567f231f6
cos_1.png=c6c7f3d98fff71c465752251dd629a91
cosd_1.png=eb8be1b0523b7acae8c1ef821fdd682f
csc_1.png=a13e98eda7cbe1284ee48f276b77add7
csch_1.png=310369792df908182b68dc09625caaca
cshep2d_1.png=968c99bcf62829dcfe29be5377837624
csim_1.png=8184fd84b36876d13e1bfe051c711645
csim_2.png=26554bbec6828a1f5ac20cbb509d38d4
csim_3.png=c1b39c2350976c73e2b641855d55ddba
csim_4.png=2795df06343733566b9081791d821f28
csim_5.png=ac09bcd32af2fb43ae1028732ebbc1b7
dae_1.png=354c9c3bd2dd2364c41faa6521e4f8dc
dae_2.png=27ba222bd0de354067def52e330cfbad
damp_en_US_1.png=e81873a345f84e42ce2c4f4779d3421d
damp_fr_FR_1.png=e81873a345f84e42ce2c4f4779d3421d
damp_ja_JP_1.png=e81873a345f84e42ce2c4f4779d3421d
damp_pt_BR_1.png=e81873a345f84e42ce2c4f4779d3421d
damp_ru_RU_1.png=e81873a345f84e42ce2c4f4779d3421d
datafit_1.png=cd52087997c788d3b0942584d38f9e8a
datafit_2.png=df0ac6cce3ab8e656471675e248b36d
datafit_3.png=7b4a378cf730d4e181aa7a6f76448863
datatipCreate_1.png=8ec8bfcd7f9dfd2a04b65f08309ee8fe
datatipGetEntities_1.png=71ddeec8bd4accf61d6e6aac4d089514
datatipGetStruct_1.png=b2a89937e8fee4f020fc6aa88de8d065
datatipRemove_1.png=3e6636ded796971426532081bd7c4b7c
datatipSetDisplay_1.png=a38bd926c09ff69e5ddc92aa0bad8437
datatipSetInterp_1.png=14b2e2d34bf4b0fd9a8cefafb382b9fd
datatipSetOrientation_1.png=195794e45b7ae088da862c074079b9e8
datatipSetStyle_1.png=6c902d69034f718ca0e7ca418512126f
datatips_1.png=d8254c1e9ef203384cdc9c45044737c2
datatips_2.png=4052a4546ac5ee65fa61ed0dbe165513
detrend_1.png=2eccb4bd13c0ab0b23b0b8a36477116b
detrend_2.png=87e3a6b831bea33f9497349bafa3ff14
drawaxis_1.png=8e796fb40ab072abf4067a37542a620
dsearch_1.png=6b6488c1a07a7ed26d0be6076d93b527
dsearch_2.png=f3737f4694bf1cff51d660822b0579c4
dsearch_3.png=53954438cd5b4a62b3fb8687c66514e4
dsearch_fr_FR_1.png=c514bed6d16e460572895227f3e86f14
dsearch_fr_FR_2.png=fafbfb1fd80337e9567602ea7c1f01d0
dsearch_fr_FR_3.png=baf82271411b092b792e67c4ebd25e1
ell1mag_1.png=7998d7d38715c29e6fbd3525b3511824
eqfir_1.png=ccaf8d9b3be54b01b15910cd2935ed94
erfinv_1.png=a9c079e2216ea843f529d8fa1af6a38d
errbar_1.png=f0db95118951d4c04c3bde7c93e2fa2e
eval3dp_1.png=2e80dc6ec334a5caf5b2c918e68bad3
eval_cshep2d_1.png=5af907b540319286ce844b966cf742e6
evans_en_US_1.png=41e97afd94ab96301b1c5d1661b56f63
evans_fr_FR_1.png=41e97afd94ab96301b1c5d1661b56f63
evans_ja_JP_1.png=41e97afd94ab96301b1c5d1661b56f63
evans_pt_BR_1.png=41e97afd94ab96301b1c5d1661b56f63
evans_ru_RU_1.png=41e97afd94ab96301b1c5d1661b56f63
fchamp_1.png=ee67b6aca421a82b83da821e4d7121de
fchamp_2.png=2a078aea05fbcd35df81170239376b2a
fec_1.png=e0a7716ead7fd2e608cc0945d0c4331c
fec_2.png=386c22e2a995f984e1f0f0d3caae93da
fec_3.png=978abd2458011220520f3defd0be5c5a
fec_4.png=90416d98c11b74c5d9ca7cee1c8a7070
fec_5.png=e9ad6f76388b0537f20eadae52d98b3c
fftshift_1.png=6ac2e2db1929ffc261e51b373f204556
fftshift_2.png=6ddc93411dff0156784b9ada5486a220
fgrayplot_1.png=37a25f51cb82aa32bde44a32973fe92a
filt_sinc_1.png=1b2698a55faedf941078a6567db543f9
flts_1.png=df09481a82788cd69c809c512d4e5689
fminsearch_en_US_1.png=6cf1eadbc3b230cbc61398d875433316
fminsearch_fr_FR_1.png=6cf1eadbc3b230cbc61398d875433316
fminsearch_ja_JP_1.png=6cf1eadbc3b230cbc61398d875433316
fminsearch_pt_BR_1.png=6cf1eadbc3b230cbc61398d875433316
fminsearch_ru_RU_1.png=6cf1eadbc3b230cbc61398d875433316
fplot2d_1.png=6e915789427344f2111be90b463014b3
fplot2d_2.png=6830eeae37e09f392668329bb45add2b
fplot2d_3.png=43cab4138ac716136ee6e875b5b9b7de
fplot3d1_1.png=4f23b549976a516f83d91c7991268b3c
fplot3d_1.png=ba85d76348d2aba0b986191799831e93
frep2tf_1.png=1f1811ca1a61c96cc1dbf0304f244da
frep2tf_2.png=d9f09f1ea92f2c9a95fd2e4099c4e9a2
freq_div_1.png=d50cf5bef89a6648695807129d746024
freson_1.png=5c5e94077fc1d13f9ca4655b34692d20
freson_2.png=e458e3475681df1b40fe0fc44b06259
freson_en_US_1.png=ae3a8393f831c9ef5810b765d647e04e
freson_en_US_2.png=e458e3475681df1b40fe0fc44b06259
frfit_1.png=f296c3d571fae9acbb8081ff80805ea7
frmag_1.png=b3dea97186e64d82c1132ab01bc6c507
fsfirlin_1.png=55eb22289db1fc4198d44c4283b6fa4a
fsolve_1.png=b7cc84aee23c4c49f76e6388d2e3048d
g_margin_1.png=2ba96a2bfc79a5a5ecb7767df01fc06a
g_margin_2.png=f5e2b73f6264d0de7b06013e8da74a2e
gainplot_en_US_1.png=d213684f7b1a3ed02b63da2b67d4ac33
gainplot_fr_FR_1.png=d213684f7b1a3ed02b63da2b67d4ac33
gainplot_ja_JP_1.png=d213684f7b1a3ed02b63da2b67d4ac33
gainplot_ru_RU_1.png=d213684f7b1a3ed02b63da2b67d4ac33
gamma_1.png=edb640abc2cbb2d381e6e59a3add4992
genfac3d_1.png=82ced89cadf20315ddd7c7d026c81443
geom3d_1.png=4bd6a5c64616f25637e575edfe070cd9
geom3d_2.png=896ca44de9f622ef3a366a18b4bea53
grand_en_US_1.png=23e73400616e24df73d92d49ae136ca8
grand_en_US_2.png=24523563e0ae758b711cc2fd9d2ab0c6
grand_en_US_3.png=50f697dbff8e5b6d2f7e9cbb87748bb5
grand_en_US_4.png=91a301dc2bc17fd8e3c7c0ba58218e68
grand_en_US_5.png=c97d5ef0523d9e1945db0e2c96f163f7
grand_en_US_6.png=d997f508519a0d385bceb1f1a08a465d
grand_fr_FR_1.png=b244998d7d604f60de6e1a52a9556a02
grand_fr_FR_2.png=35ddd9091d63685a8825fcbb0c97ec61
grand_fr_FR_3.png=281fca0a3e29c4465904cf2d05ca8a65
grand_fr_FR_4.png=15156b1094e0e9e6c6e0ffd06f253a78
grand_fr_FR_5.png=1443d8a14b6726a33f86fa9700761ce8
grand_fr_FR_6.png=d985091252a3f6a98631840bd47f127c
grand_pt_BR_1.png=23e73400616e24df73d92d49ae136ca8
grand_pt_BR_2.png=24523563e0ae758b711cc2fd9d2ab0c6
grand_pt_BR_3.png=50f697dbff8e5b6d2f7e9cbb87748bb5
grand_pt_BR_4.png=91a301dc2bc17fd8e3c7c0ba58218e68
grand_pt_BR_5.png=c97d5ef0523d9e1945db0e2c96f163f7
grand_pt_BR_6.png=d997f508519a0d385bceb1f1a08a465d
grand_ru_RU_1.png=7476fe4532159919ef6fb083cab09542
grand_ru_RU_2.png=85ab7a8d545ed270c78ac0867a5d640f
grand_ru_RU_3.png=5a2fb0595561f307c034c883e13624a2
grand_ru_RU_4.png=170b2f4f673f1fac9046f3d2fd7c5c2e
grand_ru_RU_5.png=7878888671f2fa747c5a9a07399110b3
grand_ru_RU_6.png=84813cf152d7ec12a8f01a8e3b92c1dd
graycolormap_1.png=d833922c17d3d671dd79cee1e14578d8
grayplot_1.png=a24a994d92924535d660c5655aaa2089
grayplot_2.png=a9e3251523550c0c43869fdf37c7f127
graypolarplot_1.png=268b5468c68bd5ae7035eda03436cd
group_1.png=6b464b1c93fe85515d25c7657ec66167
hallchart_en_US_1.png=1a4557f393fe401dc180f3f0c74626c
hallchart_en_US_2.png=ea1bd806ba768bef51e1df208af65b07
hallchart_en_US_3.png=19a304fad91a9edb44b6c13d062ef1c5
hallchart_fr_FR_1.png=1a4557f393fe401dc180f3f0c74626c
hallchart_fr_FR_2.png=ea1bd806ba768bef51e1df208af65b07
hallchart_fr_FR_3.png=19a304fad91a9edb44b6c13d062ef1c5
hallchart_ja_JP_1.png=1a4557f393fe401dc180f3f0c74626c
hallchart_ja_JP_2.png=ea1bd806ba768bef51e1df208af65b07
hallchart_ja_JP_3.png=434f9d799a84fc944a3a18651be4e909
hallchart_pt_BR_1.png=1a4557f393fe401dc180f3f0c74626c
hallchart_pt_BR_2.png=ea1bd806ba768bef51e1df208af65b07
hallchart_pt_BR_3.png=19a304fad91a9edb44b6c13d062ef1c5
hallchart_ru_RU_1.png=1a4557f393fe401dc180f3f0c74626c
hallchart_ru_RU_2.png=ea1bd806ba768bef51e1df208af65b07
hallchart_ru_RU_3.png=19a304fad91a9edb44b6c13d062ef1c5
hilbert_1.png=51518f324c6c0ba177825aa4dca3d431
hist3d_2.png=115bdb026707dd18523c17d8e8a1fadc
hist3d_3.png=ebc6925edb6e7d769bb62fa5407adba0
hist3d_4.png=1fd718be2769453bba087b4e04e1eda
hist3d_5.png=66480e76063d23ffdd9153016dc80494
hist3d_en_US_1.png=9031d249fda1aeea0a14f05417e56bd7
hist3d_fr_FR_1.png=9031d249fda1aeea0a14f05417e56bd7
hist3d_ja_JP_1.png=9031d249fda1aeea0a14f05417e56bd7
hist3d_pt_BR_1.png=9031d249fda1aeea0a14f05417e56bd7
hist3d_ru_RU_1.png=9031d249fda1aeea0a14f05417e56bd7
histc_1.png=c2a0daa3b13faeafe316bfb8d6403b6
histc_en_US_2.png=54cc4c7f58c2d5df08c2a1e3f13266d7
histc_en_US_3.png=61ac0dd9e6ae58f01c4af41e370e9f64
histc_en_US_4.png=749ab576fd1cd753cc7359ab2beab13a
histc_fr_FR_2.png=c5db0b0cd5057fecca00fa6b82615f71
histc_fr_FR_3.png=81a370cf3cc05bbfe92ce42b47d01f22
histc_fr_FR_4.png=f0eb71678214cc4d2037a0a29ce06ab4
histc_ja_JP_2.png=54cc4c7f58c2d5df08c2a1e3f13266d7
histc_ja_JP_3.png=61ac0dd9e6ae58f01c4af41e370e9f64
histc_ja_JP_4.png=749ab576fd1cd753cc7359ab2beab13a
histc_pt_BR_2.png=54cc4c7f58c2d5df08c2a1e3f13266d7
histc_pt_BR_3.png=61ac0dd9e6ae58f01c4af41e370e9f64
histc_pt_BR_4.png=749ab576fd1cd753cc7359ab2beab13a
histc_ru_RU_2.png=54cc4c7f58c2d5df08c2a1e3f13266d7
histc_ru_RU_3.png=61ac0dd9e6ae58f01c4af41e370e9f64
histc_ru_RU_4.png=749ab576fd1cd753cc7359ab2beab13a
histplot_1.png=becfb3115ba4cd9eaee18c2535dc557a
histplot_en_US_2.png=8117e3f08f726740eb7a4e19b7c80cf1
histplot_en_US_3.png=cd3e60e8f0a028549da7547fbf4b7222
histplot_en_US_4.png=ac27914effe5c72bfcd955f7a90d43d2
histplot_fr_FR_2.png=d7eff354adbf2b188f02d60ae6a83c8c
histplot_fr_FR_3.png=77b4c00287c0149ee45394cb8d7c90f9
histplot_ja_JP_2.png=8117e3f08f726740eb7a4e19b7c80cf1
histplot_ja_JP_3.png=cd3e60e8f0a028549da7547fbf4b7222
histplot_ja_JP_4.png=ac27914effe5c72bfcd955f7a90d43d2
histplot_ru_RU_2.png=8117e3f08f726740eb7a4e19b7c80cf1
histplot_ru_RU_3.png=cd3e60e8f0a028549da7547fbf4b7222
histplot_ru_RU_4.png=ac27914effe5c72bfcd955f7a90d43d2
hotcolormap_1.png=93b81776ad0b15d88239eab74997022e
householder_1.png=8a7bce8cfadfbf5d70436734b66ec20d
hsv2rgb_1.png=7d20c259e94301d9763fbddb7bff4784
hsvcolormap_1.png=11918d88bcc793200af0b9f1b58b0554
iir_1.png=e675c2755f68ddc4611c849895b63012
intdec_1.png=9bf5d8f1a6aeddee68d7c5d831ef2d05
interp1_1.png=e9a3f4319b2818ce4921b9bc3008d80
interp2d_1.png=f4af61bc3faf493d778169ec7decc7ae
interp2d_2.png=a62363849a3a9a3571dc1942fcebfbd3
interp2d_3.png=a9f2a0b0e59ac8cedae3ad22e0b2cc46
interp2d_4.png=6721e8c874b8c8c2badc14cb66dfc335
interp_1.png=f58742fc485ae0236bf69ee2ca56a18c
interp_2.png=7cd179b04b37e191b2e7cf21ba64dbe
interpln_1.png=bd4566ba45e721c3a1d47695a7166240
intg_en_US_1.png=24ad1ebaeea773a33928890cfddb6bb5
intg_en_US_2.png=5a9e789d2138a80876bf52ca51b591f8
intg_fr_FR_1.png=49896f43a08105afed470fca8530de7f
intg_fr_FR_2.png=77946e65b25325b6e167f39b82deedd4
intg_ja_JP_1.png=24ad1ebaeea773a33928890cfddb6bb5
intg_ja_JP_2.png=5a9e789d2138a80876bf52ca51b591f8
isoview_1.png=a30adca5a6a8d3c7352f9a5c6750732d
isoview_2.png=7f599cee0ebf55f0e9656eb280e7af3c
jetcolormap_1.png=1e12eded706f4c2d3dc1c34c389ebd2d
karmarkar_1.png=626ad2a9c40850305ba69410b5c17794
kpure_1.png=a4531e4182cb8da893aaa2a449b3f667
kpure_2.png=b55796f4bc301176449663934c11e885
leastsq_1.png=960379ff4b2b8d2fa16b2cd699fc99c8
legend_1.png=97285d5e5c6f31a671f5e16106fc3f77
legendre_1.png=ef5d177f39f62988377e88eeba509bea
legendre_2.png=d294e354a348043239f5862d5f2f3d92
legends_1.png=311d56dc35e38fec75227aa7a7135410
legends_2.png=ae5b2ed81bc9406e025808031ba6aee0
lev_1.png=f11db4e8008cd7f17b2aebfea2cd9193
light_1.png=f42f78d4e05d971c6eb48b70a3edf3fb
light_properties_1.png=beee4baee06f6261c73f63517c188d18
lighting_1.png=9506c0750c1b9541c749a39166213f29
lighting_2.png=2f09837a0807ac6bc45aeb6842038029
lighting_3.png=4db104cec73db5309f073b24c2d740e1
linear_interpn_1.png=6097d912048862430be0c7efc1cb5715
linear_interpn_2.png=babfba25d7f0743ed8a6f6618379fba9
lqe_1.png=6998d2cb2b3cb41b367d983b18dd17f1
lqg_1.png=14a7c678dad15cad4fc6f3ee55e9f3fd
lqg_2.png=2e36ecf8ee7566963a9683f68063692f
lqr_1.png=269d7421a9d109d37259c9739612dd21
lsq_splin_1.png=35722a6a58a3c9afd427b0bb23f1382a
mapsound_1.png=d53857560735f383a3e074b5546d1b7f
math_rendering_features_in_graphic_1.png=b1259d51258d72193bd32a47c8f96ca4
math_rendering_features_in_graphic_2.png=c93a1a79cbe217871185826f83fdd7bb
mese_1.png=c4ce712eded4fbbd49bb86b02e14afe9
mesh_1.png=a17150f02dbe853486f73801c9afcd11
meshgrid_1.png=9568cd9a7f4be8fde70668a8c5fbfd28
milk_drop_1.png=776c1045c1ea4a0cf189d08162567afc
move_1.png=c4599a8693c9c099ac9c7f1a5dee3e91
mrfit_1.png=d8d3736f01fc8fc707c53508cddd575f
nanreglin_1.png=a2189dd0a4084c54b9c1e05b45db555b
nanreglin_2.png=5a3c75b736030778ba4a1717051810cb
ndgrid_1.png=881b8c6e4e1ccf21fce8004766f2df8d
ndgrid_2.png=2c9c5b309ed4b25ee57c8b35e6a1fe1
ndgrid_ru_RU_2.png=4ea2b3c6a3035633dbbdf9ffc2c7a676
nicholschart_en_US_1.png=4123c1234e85121879226ae325b64513
nicholschart_en_US_2.png=f40d41b275495a2e839ed7f26bbbf92
nicholschart_fr_FR_1.png=4123c1234e85121879226ae325b64513
nicholschart_fr_FR_2.png=f40d41b275495a2e839ed7f26bbbf92
nicholschart_ja_JP_1.png=4123c1234e85121879226ae325b64513
nicholschart_ja_JP_2.png=fa1b4baefb4bc927e61968a3aac80220
nicholschart_pt_BR_1.png=4123c1234e85121879226ae325b64513
nicholschart_pt_BR_2.png=f40d41b275495a2e839ed7f26bbbf92
nicholschart_ru_RU_1.png=4123c1234e85121879226ae325b64513
nicholschart_ru_RU_2.png=f40d41b275495a2e839ed7f26bbbf92
noisegen_1.png=daba32974cb03c6999625f8fc05f83de
noisegen_2.png=6b6cba150d28f1e01416d17e426e8ad8
nyquist_en_US_1.png=26826b399f567100ed0118a54c896b5a
nyquist_en_US_2.png=483907f07d0871646b976ed4c6db1ca2
nyquist_fr_FR_1.png=26826b399f567100ed0118a54c896b5a
nyquist_fr_FR_2.png=483907f07d0871646b976ed4c6db1ca2
nyquist_ja_JP_1.png=90d0fa3d34fa0a6f3cd400a2c0028329
nyquist_ja_JP_2.png=483907f07d0871646b976ed4c6db1ca2
nyquist_ru_RU_1.png=26826b399f567100ed0118a54c896b5a
nyquist_ru_RU_2.png=483907f07d0871646b976ed4c6db1ca2
nyquistfrequencybounds_1.png=cc36d1807604c718839f5e291dc08f5a
oceancolormap_1.png=bbb2c5edd957782c0a5b7d64761b993
ode_1.png=bc747e3d4ca0f53146a64200608fc863
odedc_1.png=dd2b2dedd27d1e31522bf03a071f1f52
odedc_2.png=e200739457adb87740d6eda59334854b
odedc_3.png=3d3d5ac8d7a133e26039e93609be5cd0
odeoptions_1.png=12573ee6be852c456cf883e79dbea5f6
optim_1.png=acf2f97c596c56782cb5cfa3ddb9de3a
optim_sa_1.png=b2a6a1ff9fec247aba2e606e45387997
ordmmd_en_US_1.png=65695a27c9eaf674ba4eac782ec20eba
ordmmd_fr_FR_1.png=65695a27c9eaf674ba4eac782ec20eba
ordmmd_ja_JP_1.png=65695a27c9eaf674ba4eac782ec20eba
ordmmd_pt_BR_1.png=65695a27c9eaf674ba4eac782ec20eba
ordmmd_ru_RU_1.png=65695a27c9eaf674ba4eac782ec20eba
orthProj_1.png=ce22c81dda75863eb40a717f11c88011
param3d_1.png=a13e8ee1973383456316f059e1527b10
param3d_2.png=7c101a361b575bb927013e52b76cb3ea
param3d_3.png=b0f376ac390de56c3c2cba61456e75db
param3d_4.png=d2aca1e05df03e8bee45d115c6668285
parulacolormap_1.png=6d19dadbcf270d0bd89aeda86573f45e
percentasn_1.png=2c864619bcf4876ed395f49798f0f283
percentsn_1.png=64ebf9395ff1337fe97136c4b989e264
percentsn_2.png=4eb98a9c280acc1f705fed25faa64162
phasemag_1.png=461defdcbb7fea7738cb6657571edc15
phasemag_2.png=b937bb324ac0206d43d82aed0f6ccd16
phaseplot_en_US_1.png=11314c3417156a7f80611d56e512dff
phaseplot_fr_FR_1.png=11314c3417156a7f80611d56e512dff
phaseplot_ja_JP_1.png=11314c3417156a7f80611d56e512dff
phaseplot_pt_BR_1.png=11314c3417156a7f80611d56e512dff
phaseplot_ru_RU_1.png=11314c3417156a7f80611d56e512dff
pie_1.png=f6e707ec2c55fe1b1a8a42ed2c259461
pie_2.png=2a079e38a22d5166230fb0564a2fbb60
pie_3.png=1b0fa134f30208b6f481d3f989b53777
pinkcolormap_1.png=923c094fc37264c19d2284408b3877a5
plot2d2_1.png=acda91a7794488f45732137746f340e1
plot2d2_2.png=7a7c218451d032290b045c201bf5bc7a
plot2d2_3.png=72e2bbb186ddf94109c97fcbbf35f5e7
plot2d3_1.png=fcdc7523ac25a527764cdbb9351d7a58
plot2d3_2.png=42ff831fb2c002525f96d9232fdd718b
plot2d4_1.png=ca17ee46fae89a343407d090111051b5
plot2d4_2.png=1115770f63002c2f37c5f42fd1a48c58
plot2d_1.png=6938527906d00e35013f43aa6810e52f
plot2d_10.png=37babd15bbc1cf1052a9afaef72ca85
plot2d_2.png=48949e8c7de5cab2f8f68e9b0d30f65a
plot2d_3.png=d491471e1355626da75f16255adbbf45
plot2d_4.png=8db7dbb9f894fa92f0426971771818fa
plot2d_5.png=dc9304b659b4aebf33e4ec45fd07a9eb
plot2d_6.png=4c8563bfa28b0731aab8b09361b61545
plot2d_7.png=ae1cd4d3d5c3d0d7a4321adba5e3a224
plot2d_8.png=54bcc043076eccf0df3a7363b9b45057
plot2d_9.png=e0d3d935f99e7747b28561b3fd05eff
plot3d1_1.png=773d7b1dad9f615a99292c162aaa48c9
plot3d1_2.png=3200245986ed735d3f68d8b9c5bbba04
plot3d1_3.png=2d040ce5eb82b122cca377f269ebe08f
plot3d1_4.png=e9e592a5beaba64ac6e355a48b83e545
plot3d1_5.png=c22d9c9d2e2373eaa6ef0b8860506aa4
plot3d1_6.png=fc0620dc6f578711980018fed81d4475
plot3d2_1.png=a6cfacc6af759d404f9dd74455cde45c
plot3d3_1.png=baa919b1749a9cfdffe8e31d83e6970e
plot3d_1.png=af70391f12ad43a0656abf467c522cb5
plot3d_10.png=b82e6b29bd1a0c2fc3c0457aff79e65c
plot3d_11.png=a42e36783eb678337ac68cea11a33c72
plot3d_2.png=646f07e5050eda3bcb8b1ee81afc4670
plot3d_3.png=d30f993b7a37681ea66e45d3bb17c2fa
plot3d_4.png=649437ed32a1f4691421b065bbc4051d
plot3d_5.png=e5cd222632f0207e2f48a946c5e46aec
plot3d_6.png=a491f1e7b84b7fbf50eb39a6d795fb81
plot3d_7.png=b106077ec3b360ba717fef4579da3f55
plot3d_8.png=d7ca9d9d5dd993d30bc6423a0528ff8e
plot3d_9.png=c0f93d84e3ccdc76486bd41209b1f76b
plot_1.png=f1b99772428f58ecb395a0e9d646467c
plot_10.png=39217be67a065109f320385c67293b6e
plot_11.png=3fbb963b7ebc42b5cf32d0443197c30b
plot_12.png=59b89f2aa6e520bf84d04f4cc922e51
plot_13.png=483a01785c6cf3d4e2fd579856fd1ac8
plot_14.png=7dd661fc751b460aeb4f7f5614ee1e03
plot_15.png=d60a53ee0d50caf6fae23be0613054e2
plot_16.png=422149b7b3015c0185857b4a9eb1d966
plot_2.png=1c9822aea3c0649c26bcd64a65bf39f7
plot_3.png=ce8a2e0b714b49035e7529d78cd3a10f
plot_4.png=1c8f1479946652d256e5ee7533690ea6
plot_5.png=82aabbb95b90c8f3d3a7b8c3d384184e
plot_6.png=76981d7518e409d672ee0752e8b7aef0
plot_7.png=3e6f75be9834e9fd7f447db3767a3b6
plot_8.png=d5e18d03116f8af7abcef68336ed5b9a
plot_9.png=9d5a719f21284768e8d287ea3330cda4
polarplot_1.png=92b1189dd351372e587b472bad213e09
polarplot_2.png=7a5f1cd3ef07687170c0de62231a2b5c
polarplot_3.png=f11a25552a72c4454001c29b97073379
polarplot_4.png=a4df61be3e5a6aa65eb22ab44e9dc5d3
polyline_properties_1.png=5458d2f7efc2756fbb364a80e066588f
polyline_properties_2.png=3349e39fe563e09fc488e9ed03c6e4ae
polyline_properties_3.png=c758a8eb88f3a7383151da8a94cf808
prbs_a_1.png=346ac375b06faf45f7fe67472b413509
rainbowcolormap_1.png=68be57c62080633d0e67a91389f5ecd8
reglin_1.png=9b22e4b782eb58eb90e5dccd50dfb466
reglin_2.png=109258bc122deeadf53e2b832d510201
remezb_1.png=17a8eb044482a1871bede91c36eddf0f
replot_1.png=d9ab231632d9298a6f87718df49ce8ae
replot_2.png=2bbd8e5516bcfba00fb343eff77b4736
rotate_1.png=df252732000d1c17d23c04e038b1b0f3
rpem_1.png=f1f661c0f1bc866f159ff8e328971f0f
sca_1.png=26a128db93d82d857191be51313e1d87
scatter3_1.png=aab921f0b450aa45bfbb5664bec0041e
scatter3_2.png=15c5d3b32f8696f4208bbb5b2bad2d71
scatter3_3.png=bf801be16a94d5a7651cde4137b8b954
scatter3_4.png=ac77626acc1dc458d8952628f3bafb0b
scatter3_5.png=8b9defb308112c5543fa224f48c9f9a0
scatter3_6.png=1208c36176ce151609a9e8a028e2efec
scatter3_7.png=7b4166df26aa032d619e763b5e3d5ffb
scatter3_8.png=78c1739441d452b32803d9afe828b9a0
scatter3_9.png=19492ab5f75f0fb62c39fcff53985cca
scatter_1.png=4f9bcfe033f3f679978a95d46a1d1668
scatter_2.png=237636079259daa7a0193f047c9b36f7
scatter_3.png=f76e8578dcbe18c3b40ed66382632f10
scatter_4.png=671bbf57009b525a69d0584db6bf9b36
scatter_5.png=8851ea383bf3c8fbb108599bca6e29da
scatter_6.png=38ce1594a221f1817c355adcf1e35cf5
scatter_7.png=9e2bdcf2579bbbc0515268dcc7ebd4d1
scatter_8.png=b7a40a8bbd7cf29b62b771e3be59b988
scatter_9.png=9f987520c26d42c41f2ee6d3ec930529
scifunc_block_m_1.png=a26368cd2a69c472967105b9d8deb5ed
sec_1.png=4eff2516ae7932bb126b6e2fa133f046
sech_1.png=62b827923764aaaf8ce355b0256bef3b
sgrid_1.png=76950c3a78d543018ca046b7e5709d88
sgrid_en_US_2.png=ad8cda5dda0c0c324b31c292add26315
sgrid_fr_FR_2.png=ad8cda5dda0c0c324b31c292add26315
sgrid_ja_JP_2.png=ad8cda5dda0c0c324b31c292add26315
sgrid_ru_RU_2.png=ad8cda5dda0c0c324b31c292add26315
show_margins_en_US_1.png=698c2e49c740d473e95a6fc890c00860
show_margins_en_US_2.png=a3a47700e4703a9f57f5b183be970fb
show_margins_fr_FR_1.png=698c2e49c740d473e95a6fc890c00860
show_margins_fr_FR_2.png=a3a47700e4703a9f57f5b183be970fb
show_margins_ja_JP_1.png=698c2e49c740d473e95a6fc890c00860
show_margins_ja_JP_2.png=a3a47700e4703a9f57f5b183be970fb
show_margins_pt_BR_1.png=698c2e49c740d473e95a6fc890c00860
show_margins_pt_BR_2.png=a3a47700e4703a9f57f5b183be970fb
show_margins_ru_RU_1.png=698c2e49c740d473e95a6fc890c00860
show_margins_ru_RU_2.png=a3a47700e4703a9f57f5b183be970fb
sin_1.png=e0478ada92a7cfffb763d2833a8362b7
sinc_1.png=a3fc583744e18f36877244ba10adc94f
sinc_2.png=6fdf9909b30d83c046da8829d7905bb2
sinh_1.png=a6d9cd67d383e2b737257c4a18317abe
smooth_1.png=ebef37585006626b34e13b95a3667e9d
splin2d_1.png=6e186e7bcf5d848fd9d8f354282f6489
splin2d_2.png=f36065c49f29e782c8b49e2958ad75c0
splin3d_en_US_1.png=13b170241470ca4af84f26b2b0faf91c
splin3d_fr_FR_1.png=13b170241470ca4af84f26b2b0faf91c
splin3d_ja_JP_1.png=13b170241470ca4af84f26b2b0faf91c
splin3d_ru_RU_1.png=13b170241470ca4af84f26b2b0faf91c
splin_1.png=4982eeb64b3dc94cc23e16b4e5af0b15
splin_2.png=446983411e4aa2a48c9aa96edef44404
springcolormap_1.png=b6f8f97a269786a9d53e4fe31b097861
stringbox_1.png=6546ab6a9d8edbd09c41eebc2b77c67b
subplot_1.png=4178b6def9655a23b78ab238c2380d5f
summercolormap_1.png=b6e693f0c3ddcfcb7271926e20457ebd
surf_1.png=89b9bf883d751093a226a0dce8f3b7da
surf_10.png=c18da91e3465c1e46c633a9a5b1c86b8
surf_2.png=d0e66f30d3c02be0fa362606a5b9e6cd
surf_3.png=b7fc5c92f7af023772f0635325506b40
surf_4.png=b37a3913244ede26ae72985a07e28217
surf_5.png=cd8d74dffc9ff1d21f1afbf98297c8ee
surf_6.png=a82698c740b331d25a3d478e48e3ed50
surf_7.png=d49cf32bd70642bdc7d5b50b675775fc
surf_8.png=f14a7126b2af207ede224056e90e25ab
surf_9.png=92cc5270fc0bd51ef3553b21774634f4
svplot_1.png=7b4e6b3820708a019268aaadf2f04340
tabul_1.png=4a0bd7b7b0d1abe065a31a235940e2a2
tan_1.png=7ed3a609064320b0ee99e0cfe612d8cf
tanh_1.png=5840b9271a8ec32413927548050b6bdf
taucs_chget_1.png=de0b7d8f19e3b65daab09bd1eddadfd9
text_properties_1.png=e89c2e3ef82bc25441ef577e5ea69c6
title_1.png=43bf4550c7c9b2de76ddd4eddb479b2b
titlepage_1.png=917be99c9df0964672daa45c284de115
titlepage_2.png=4442891fd6f287a8fb39b92006ff40c5
titlepage_en_US_2.png=4442891fd6f287a8fb39b92006ff40c5
titlepage_fr_FR_1.png=f76157d643854ea8716178823dd2680e
titlepage_fr_FR_2.png=b709d54b9476c67d4272f1e086f33909
titlepage_ru_RU_2.png=4442891fd6f287a8fb39b92006ff40c5
trans_1.png=a5ddde2263a28ffaba21606bcfc2232
unwrap_1.png=b55bd8834f6ed873c3c614d5b81a7484
wavread_1.png=7f4fa7fd3215e86c6beac1b99ed5c107
whitecolormap_1.png=5c902a640b651c5ec7bcfdeba604e3c0
wiener_1.png=7cf1c15abff7e9f0c2ca9bd45882a5c
wigner_1.png=f775cca252e20dd1029d24f5cc6f430a
window_1.png=4de5a4eee9a8a1ef039c8c9c8e65d6bb
window_2.png=44cddcb55562ebc6e02da35aafb9c0c0
window_3.png=5da80737d10d701654fe8d0b5b5bc703
wintercolormap_1.png=149a68e3ce0fc6154a1b5f9ee7c63796
xarc_1.png=98ae0ca8816136f1aa553ffb527209b6
xarc_2.png=cc873861271071e2fdc147d8fa82617c
xarcs_1.png=57b4f11abec7404c3a8a739a2d113865
xarrows_1.png=5fe05f29338e5d7c936404917632d6e4
xarrows_2.png=7e3e934e8efaef5c71a65a626f60fee
xcorr_1.png=d4e2cafacf9bbb0ea03e5cc9ef446de6
xcov_1.png=55382455c759833b21412f376fbd2edb
xfarc_1.png=e0b0e0340f75791bc3989a9eacb637fd
xfarcs_1.png=fdc755f85c726cde5b0cbaed1feea126
xfpoly_1.png=994c788f46b7d5475b295a1b2464a3a2
xfpolys_1.png=7d24bee61db482cd4f3a2556ee6cf3e3
xfpolys_2.png=5618554c0ad9cfea7f921e8747dd8dca
xfpolys_3.png=e7d0e541d182062f243f90d111f7ecde
xfrect_1.png=17ac92d176dfc56c91f7321423523ed7
xgetech_1.png=302937507487b5bbfbe401ff9e5ea2df
xgrid_1.png=1e49a2c7efa08eeed42aee791c3f1959
xlabel_1.png=ba2339f34c8dddbba3032c16dd8378b4
xnumb_1.png=e2966910792ea6c60caf87dc7d25f856
xpoly_1.png=de3eb8cacec4aa4ced6992f2df68ad55
xpoly_2.png=56e4bf7c2fbf668f6c3da56bd3bd64ea
xpolys_1.png=30719dcd92ada868282322dd1bd0ee11
xrect_1.png=4f05d205e4b7b787bea3c50e79494cde
xrects_1.png=6ba2f52a6d5b6103f1b40aa20992f34f
xrpoly_1.png=a453e690b0ac9bcf7d55367410f5f3b6
xsegs_1.png=91a8de636798e8ed7e9f15392f7b9dbb
xsegs_2.png=783a2ea9b55226bfd7178df7eff61eef
xsegs_3.png=2720d5a3fc9a5fa2b8fc682fb34ef0aa
xsetech_1.png=48b17a1685f6a9789c0265f76f61838c
xsetech_2.png=45c810d91fb4dcdd855aef433b7f44d8
xsetech_3.png=702ac81ee5024ba15ab34176ebce2e73
xstring_1.png=6b33769d0916b641755a0fa056f10378
xstringb_1.png=c7c1db7aee55fde60cc5c0d5314f9ce5
xstringl_1.png=77cf3298ae33ee0458bb4bedd536377a
xstringl_2.png=e8b53d8536f460722b24fd87537a03bb
xstringl_3.png=88b6cd599658f1be8239b1e88ea28bce
xstringl_en_US_1.png=77cf3298ae33ee0458bb4bedd536377a
xstringl_en_US_2.png=e8b53d8536f460722b24fd87537a03bb
xstringl_fr_FR_1.png=6053fed31dfc3575632182d100fa9c9b
xstringl_fr_FR_2.png=c8f51ca448ddb3a5d74a3eacc8c3016
xstringl_ja_JP_1.png=7a318325ae28e851a48d79d70312683a
xstringl_ru_RU_1.png=77cf3298ae33ee0458bb4bedd536377a
xstringl_ru_RU_2.png=e8b53d8536f460722b24fd87537a03bb
xtitle_1.png=91a652a9e42e4f149b0d206313acce42
yulewalk_1.png=aa8936b9612d5555b8d3baba672fe2f7
yulewalk_2.png=8b62c274c3250a6037f45a22e0e3c066
zgrid_1.png=190b2ae2de84a85e1712bfa8560013e9
zgrid_en_US_2.png=c13e294bbeef596ee4298e14e66dacb1
zgrid_fr_FR_2.png=c13e294bbeef596ee4298e14e66dacb1
zgrid_ja_JP_2.png=c13e294bbeef596ee4298e14e66dacb1
zgrid_pt_BR_2.png=c13e294bbeef596ee4298e14e66dacb1
zgrid_ru_RU_2.png=c13e294bbeef596ee4298e14e66dacb1
